%YAML 1.1
%TAG !u! tag:unity3d.com,2011:
--- !u!74 &7400000
AnimationClip:
  m_ObjectHideFlags: 0
  m_CorrespondingSourceObject: {fileID: 0}
  m_PrefabInstance: {fileID: 0}
  m_PrefabAsset: {fileID: 0}
  m_Name: Yog-Sothoth
  serializedVersion: 6
  m_Legacy: 0
  m_Compressed: 0
  m_UseHighQualityCurve: 1
  m_RotationCurves: []
  m_CompressedRotationCurves: []
  m_EulerCurves: []
  m_PositionCurves: []
  m_ScaleCurves: []
  m_FloatCurves: []
  m_PPtrCurves:
  - curve:
    - time: 0
      value: {fileID: 7990462391421052121, guid: 76f9672f923af774a914b1c34ce2b58f, type: 3}
    - time: 0.016666668
      value: {fileID: -3026686259923991701, guid: 76f9672f923af774a914b1c34ce2b58f, type: 3}
    - time: 0.033333335
      value: {fileID: -7365194502993197801, guid: 76f9672f923af774a914b1c34ce2b58f, type: 3}
    - time: 0.05
      value: {fileID: -3957423030781902063, guid: 76f9672f923af774a914b1c34ce2b58f, type: 3}
    - time: 0.06666667
      value: {fileID: 345483897287084011, guid: 76f9672f923af774a914b1c34ce2b58f, type: 3}
    - time: 0.083333336
      value: {fileID: 1744625197838401044, guid: 76f9672f923af774a914b1c34ce2b58f, type: 3}
    - time: 0.1
      value: {fileID: 2352921222522783892, guid: 76f9672f923af774a914b1c34ce2b58f, type: 3}
    - time: 0.11666667
      value: {fileID: -8421822145125700023, guid: 76f9672f923af774a914b1c34ce2b58f, type: 3}
    - time: 0.13333334
      value: {fileID: 9097966010903837631, guid: 76f9672f923af774a914b1c34ce2b58f, type: 3}
    - time: 0.15
      value: {fileID: 2435162069542327761, guid: 76f9672f923af774a914b1c34ce2b58f, type: 3}
    - time: 0.16666667
      value: {fileID: 2452841106077869317, guid: 76f9672f923af774a914b1c34ce2b58f, type: 3}
    - time: 0.18333334
      value: {fileID: -588768582240376847, guid: 76f9672f923af774a914b1c34ce2b58f, type: 3}
    - time: 0.2
      value: {fileID: -376232448353678577, guid: 76f9672f923af774a914b1c34ce2b58f, type: 3}
    - time: 0.21666667
      value: {fileID: 436290287129671519, guid: 76f9672f923af774a914b1c34ce2b58f, type: 3}
    - time: 0.23333333
      value: {fileID: -4000994658638421522, guid: 76f9672f923af774a914b1c34ce2b58f, type: 3}
    - time: 0.25
      value: {fileID: -6280748806287550257, guid: 76f9672f923af774a914b1c34ce2b58f, type: 3}
    - time: 0.26666668
      value: {fileID: 7439033565465470130, guid: 76f9672f923af774a914b1c34ce2b58f, type: 3}
    - time: 0.28333333
      value: {fileID: 7786531022218862613, guid: 76f9672f923af774a914b1c34ce2b58f, type: 3}
    - time: 0.3
      value: {fileID: -7624974635432104042, guid: 76f9672f923af774a914b1c34ce2b58f, type: 3}
    - time: 0.31666666
      value: {fileID: -3017438003481826750, guid: 76f9672f923af774a914b1c34ce2b58f, type: 3}
    - time: 0.33333334
      value: {fileID: -5275316583189458127, guid: 76f9672f923af774a914b1c34ce2b58f, type: 3}
    - time: 0.35
      value: {fileID: -5610359367438316485, guid: 76f9672f923af774a914b1c34ce2b58f, type: 3}
    - time: 0.36666667
      value: {fileID: -2740060612348327660, guid: 76f9672f923af774a914b1c34ce2b58f, type: 3}
    - time: 0.38333333
      value: {fileID: -178428688103247559, guid: 76f9672f923af774a914b1c34ce2b58f, type: 3}
    - time: 0.4
      value: {fileID: 353724735410232324, guid: 76f9672f923af774a914b1c34ce2b58f, type: 3}
    - time: 0.41666666
      value: {fileID: 6543213512397529943, guid: 76f9672f923af774a914b1c34ce2b58f, type: 3}
    - time: 0.43333334
      value: {fileID: -1349900674894386814, guid: 76f9672f923af774a914b1c34ce2b58f, type: 3}
    - time: 0.45
      value: {fileID: 9215642994710373278, guid: 76f9672f923af774a914b1c34ce2b58f, type: 3}
    - time: 0.46666667
      value: {fileID: -5249712893352091703, guid: 76f9672f923af774a914b1c34ce2b58f, type: 3}
    - time: 0.48333332
      value: {fileID: -1351827128882526323, guid: 76f9672f923af774a914b1c34ce2b58f, type: 3}
    - time: 0.5
      value: {fileID: -1152850495598518133, guid: 76f9672f923af774a914b1c34ce2b58f, type: 3}
    - time: 0.51666665
      value: {fileID: 3654532486437506936, guid: 76f9672f923af774a914b1c34ce2b58f, type: 3}
    - time: 0.53333336
      value: {fileID: 821428702751360970, guid: 76f9672f923af774a914b1c34ce2b58f, type: 3}
    - time: 0.55
      value: {fileID: 2180063410587809288, guid: 76f9672f923af774a914b1c34ce2b58f, type: 3}
    - time: 0.56666666
      value: {fileID: -2026861748213225624, guid: 76f9672f923af774a914b1c34ce2b58f, type: 3}
    - time: 0.5833333
      value: {fileID: -5410780685000874623, guid: 76f9672f923af774a914b1c34ce2b58f, type: 3}
    - time: 0.6
      value: {fileID: -4978817802664242361, guid: 76f9672f923af774a914b1c34ce2b58f, type: 3}
    attribute: m_Sprite
    path: 
    classID: 114
    script: {fileID: 11500000, guid: fe87c0e1cc204ed48ad3b37840f39efc, type: 3}
  m_SampleRate: 60
  m_WrapMode: 0
  m_Bounds:
    m_Center: {x: 0, y: 0, z: 0}
    m_Extent: {x: 0, y: 0, z: 0}
  m_ClipBindingConstant:
    genericBindings:
    - serializedVersion: 2
      path: 0
      attribute: 2015549526
      script: {fileID: 11500000, guid: fe87c0e1cc204ed48ad3b37840f39efc, type: 3}
      typeID: 114
      customType: 0
      isPPtrCurve: 1
    pptrCurveMapping:
    - {fileID: 7990462391421052121, guid: 76f9672f923af774a914b1c34ce2b58f, type: 3}
    - {fileID: -3026686259923991701, guid: 76f9672f923af774a914b1c34ce2b58f, type: 3}
    - {fileID: -7365194502993197801, guid: 76f9672f923af774a914b1c34ce2b58f, type: 3}
    - {fileID: -3957423030781902063, guid: 76f9672f923af774a914b1c34ce2b58f, type: 3}
    - {fileID: 345483897287084011, guid: 76f9672f923af774a914b1c34ce2b58f, type: 3}
    - {fileID: 1744625197838401044, guid: 76f9672f923af774a914b1c34ce2b58f, type: 3}
    - {fileID: 2352921222522783892, guid: 76f9672f923af774a914b1c34ce2b58f, type: 3}
    - {fileID: -8421822145125700023, guid: 76f9672f923af774a914b1c34ce2b58f, type: 3}
    - {fileID: 9097966010903837631, guid: 76f9672f923af774a914b1c34ce2b58f, type: 3}
    - {fileID: 2435162069542327761, guid: 76f9672f923af774a914b1c34ce2b58f, type: 3}
    - {fileID: 2452841106077869317, guid: 76f9672f923af774a914b1c34ce2b58f, type: 3}
    - {fileID: -588768582240376847, guid: 76f9672f923af774a914b1c34ce2b58f, type: 3}
    - {fileID: -376232448353678577, guid: 76f9672f923af774a914b1c34ce2b58f, type: 3}
    - {fileID: 436290287129671519, guid: 76f9672f923af774a914b1c34ce2b58f, type: 3}
    - {fileID: -4000994658638421522, guid: 76f9672f923af774a914b1c34ce2b58f, type: 3}
    - {fileID: -6280748806287550257, guid: 76f9672f923af774a914b1c34ce2b58f, type: 3}
    - {fileID: 7439033565465470130, guid: 76f9672f923af774a914b1c34ce2b58f, type: 3}
    - {fileID: 7786531022218862613, guid: 76f9672f923af774a914b1c34ce2b58f, type: 3}
    - {fileID: -7624974635432104042, guid: 76f9672f923af774a914b1c34ce2b58f, type: 3}
    - {fileID: -3017438003481826750, guid: 76f9672f923af774a914b1c34ce2b58f, type: 3}
    - {fileID: -5275316583189458127, guid: 76f9672f923af774a914b1c34ce2b58f, type: 3}
    - {fileID: -5610359367438316485, guid: 76f9672f923af774a914b1c34ce2b58f, type: 3}
    - {fileID: -2740060612348327660, guid: 76f9672f923af774a914b1c34ce2b58f, type: 3}
    - {fileID: -178428688103247559, guid: 76f9672f923af774a914b1c34ce2b58f, type: 3}
    - {fileID: 353724735410232324, guid: 76f9672f923af774a914b1c34ce2b58f, type: 3}
    - {fileID: 6543213512397529943, guid: 76f9672f923af774a914b1c34ce2b58f, type: 3}
    - {fileID: -1349900674894386814, guid: 76f9672f923af774a914b1c34ce2b58f, type: 3}
    - {fileID: 9215642994710373278, guid: 76f9672f923af774a914b1c34ce2b58f, type: 3}
    - {fileID: -5249712893352091703, guid: 76f9672f923af774a914b1c34ce2b58f, type: 3}
    - {fileID: -1351827128882526323, guid: 76f9672f923af774a914b1c34ce2b58f, type: 3}
    - {fileID: -1152850495598518133, guid: 76f9672f923af774a914b1c34ce2b58f, type: 3}
    - {fileID: 3654532486437506936, guid: 76f9672f923af774a914b1c34ce2b58f, type: 3}
    - {fileID: 821428702751360970, guid: 76f9672f923af774a914b1c34ce2b58f, type: 3}
    - {fileID: 2180063410587809288, guid: 76f9672f923af774a914b1c34ce2b58f, type: 3}
    - {fileID: -2026861748213225624, guid: 76f9672f923af774a914b1c34ce2b58f, type: 3}
    - {fileID: -5410780685000874623, guid: 76f9672f923af774a914b1c34ce2b58f, type: 3}
    - {fileID: -4978817802664242361, guid: 76f9672f923af774a914b1c34ce2b58f, type: 3}
  m_AnimationClipSettings:
    serializedVersion: 2
    m_AdditiveReferencePoseClip: {fileID: 0}
    m_AdditiveReferencePoseTime: 0
    m_StartTime: 0
    m_StopTime: 0.6166667
    m_OrientationOffsetY: 0
    m_Level: 0
    m_CycleOffset: 0
    m_HasAdditiveReferencePose: 0
    m_LoopTime: 1
    m_LoopBlend: 0
    m_LoopBlendOrientation: 0
    m_LoopBlendPositionY: 0
    m_LoopBlendPositionXZ: 0
    m_KeepOriginalOrientation: 0
    m_KeepOriginalPositionY: 1
    m_KeepOriginalPositionXZ: 0
    m_HeightFromFeet: 0
    m_Mirror: 0
  m_EditorCurves: []
  m_EulerEditorCurves: []
  m_HasGenericRootTransform: 0
  m_HasMotionFloatCurves: 0
  m_Events: []
