%YAML 1.1
%TAG !u! tag:unity3d.com,2011:
--- !u!74 &7400000
AnimationClip:
  m_ObjectHideFlags: 0
  m_CorrespondingSourceObject: {fileID: 0}
  m_PrefabInstance: {fileID: 0}
  m_PrefabAsset: {fileID: 0}
  m_Name: GoblinAttack
  serializedVersion: 6
  m_Legacy: 0
  m_Compressed: 0
  m_UseHighQualityCurve: 1
  m_RotationCurves: []
  m_CompressedRotationCurves: []
  m_EulerCurves: []
  m_PositionCurves: []
  m_ScaleCurves: []
  m_FloatCurves: []
  m_PPtrCurves:
  - curve:
    - time: 0
      value: {fileID: -4595621095415242872, guid: bfd9ede62c3f28d4699cbdad247f5fb4, type: 3}
    - time: 0.083333336
      value: {fileID: 6009215467603149564, guid: bfd9ede62c3f28d4699cbdad247f5fb4, type: 3}
    - time: 0.16666667
      value: {fileID: -8281098661829765949, guid: bfd9ede62c3f28d4699cbdad247f5fb4, type: 3}
    - time: 0.25
      value: {fileID: -5892475939613967414, guid: bfd9ede62c3f28d4699cbdad247f5fb4, type: 3}
    - time: 0.33333334
      value: {fileID: -546976181994433175, guid: bfd9ede62c3f28d4699cbdad247f5fb4, type: 3}
    - time: 0.41666666
      value: {fileID: -4134171376181033291, guid: bfd9ede62c3f28d4699cbdad247f5fb4, type: 3}
    - time: 0.5
      value: {fileID: -3096598610829282326, guid: bfd9ede62c3f28d4699cbdad247f5fb4, type: 3}
    - time: 0.5833333
      value: {fileID: 1443056671282247407, guid: bfd9ede62c3f28d4699cbdad247f5fb4, type: 3}
    - time: 0.6666667
      value: {fileID: 1316937001924542441, guid: bfd9ede62c3f28d4699cbdad247f5fb4, type: 3}
    - time: 0.75
      value: {fileID: -6759826604800896327, guid: bfd9ede62c3f28d4699cbdad247f5fb4, type: 3}
    - time: 0.8333333
      value: {fileID: 902430277785647881, guid: bfd9ede62c3f28d4699cbdad247f5fb4, type: 3}
    - time: 0.9166667
      value: {fileID: 8262106868728378133, guid: bfd9ede62c3f28d4699cbdad247f5fb4, type: 3}
    attribute: m_Sprite
    path: 
    classID: 212
    script: {fileID: 0}
  m_SampleRate: 60
  m_WrapMode: 0
  m_Bounds:
    m_Center: {x: 0, y: 0, z: 0}
    m_Extent: {x: 0, y: 0, z: 0}
  m_ClipBindingConstant:
    genericBindings:
    - serializedVersion: 2
      path: 0
      attribute: 0
      script: {fileID: 0}
      typeID: 212
      customType: 23
      isPPtrCurve: 1
    pptrCurveMapping:
    - {fileID: -4595621095415242872, guid: bfd9ede62c3f28d4699cbdad247f5fb4, type: 3}
    - {fileID: 6009215467603149564, guid: bfd9ede62c3f28d4699cbdad247f5fb4, type: 3}
    - {fileID: -8281098661829765949, guid: bfd9ede62c3f28d4699cbdad247f5fb4, type: 3}
    - {fileID: -5892475939613967414, guid: bfd9ede62c3f28d4699cbdad247f5fb4, type: 3}
    - {fileID: -546976181994433175, guid: bfd9ede62c3f28d4699cbdad247f5fb4, type: 3}
    - {fileID: -4134171376181033291, guid: bfd9ede62c3f28d4699cbdad247f5fb4, type: 3}
    - {fileID: -3096598610829282326, guid: bfd9ede62c3f28d4699cbdad247f5fb4, type: 3}
    - {fileID: 1443056671282247407, guid: bfd9ede62c3f28d4699cbdad247f5fb4, type: 3}
    - {fileID: 1316937001924542441, guid: bfd9ede62c3f28d4699cbdad247f5fb4, type: 3}
    - {fileID: -6759826604800896327, guid: bfd9ede62c3f28d4699cbdad247f5fb4, type: 3}
    - {fileID: 902430277785647881, guid: bfd9ede62c3f28d4699cbdad247f5fb4, type: 3}
    - {fileID: 8262106868728378133, guid: bfd9ede62c3f28d4699cbdad247f5fb4, type: 3}
  m_AnimationClipSettings:
    serializedVersion: 2
    m_AdditiveReferencePoseClip: {fileID: 0}
    m_AdditiveReferencePoseTime: 0
    m_StartTime: 0
    m_StopTime: 0.93333334
    m_OrientationOffsetY: 0
    m_Level: 0
    m_CycleOffset: 0
    m_HasAdditiveReferencePose: 0
    m_LoopTime: 0
    m_LoopBlend: 0
    m_LoopBlendOrientation: 0
    m_LoopBlendPositionY: 0
    m_LoopBlendPositionXZ: 0
    m_KeepOriginalOrientation: 0
    m_KeepOriginalPositionY: 1
    m_KeepOriginalPositionXZ: 0
    m_HeightFromFeet: 0
    m_Mirror: 0
  m_EditorCurves: []
  m_EulerEditorCurves: []
  m_HasGenericRootTransform: 0
  m_HasMotionFloatCurves: 0
  m_Events:
  - time: 0.8333333
    functionName: SpawnProjectile
    data: 
    objectReferenceParameter: {fileID: 0}
    floatParameter: 0
    intParameter: 0
    messageOptions: 0
