%YAML 1.1
%TAG !u! tag:unity3d.com,2011:
--- !u!74 &7400000
AnimationClip:
  m_ObjectHideFlags: 0
  m_CorrespondingSourceObject: {fileID: 0}
  m_PrefabInstance: {fileID: 0}
  m_PrefabAsset: {fileID: 0}
  m_Name: BossProjLaunch
  serializedVersion: 6
  m_Legacy: 0
  m_Compressed: 0
  m_UseHighQualityCurve: 1
  m_RotationCurves: []
  m_CompressedRotationCurves: []
  m_EulerCurves: []
  m_PositionCurves: []
  m_ScaleCurves:
  - curve:
      serializedVersion: 2
      m_Curve:
      - serializedVersion: 3
        time: 0
        value: {x: 0.5, y: 0.5, z: 1}
        inSlope: {x: 0, y: 0, z: 0}
        outSlope: {x: 0, y: 0, z: 0}
        tangentMode: 0
        weightedMode: 0
        inWeight: {x: 0.33333334, y: 0.33333334, z: 0.33333334}
        outWeight: {x: 0.33333334, y: 0.33333334, z: 0.33333334}
      - serializedVersion: 3
        time: 0.75
        value: {x: 3, y: 3, z: 1}
        inSlope: {x: 0, y: 0, z: 0}
        outSlope: {x: 0, y: 0, z: 0}
        tangentMode: 0
        weightedMode: 0
        inWeight: {x: 0.33333334, y: 0.33333334, z: 0.33333334}
        outWeight: {x: 0.33333334, y: 0.33333334, z: 0.33333334}
      m_PreInfinity: 2
      m_PostInfinity: 2
      m_RotationOrder: 4
    path: 
  m_FloatCurves: []
  m_PPtrCurves:
  - curve:
    - time: 0
      value: {fileID: -2157860968071862633, guid: ef0d740b070731e40ba5e7273a8edf3a, type: 3}
    - time: 0.083333336
      value: {fileID: 6244746214015071090, guid: ef0d740b070731e40ba5e7273a8edf3a, type: 3}
    - time: 0.16666667
      value: {fileID: 5542081143093487373, guid: ef0d740b070731e40ba5e7273a8edf3a, type: 3}
    - time: 0.25
      value: {fileID: -6557463760738191070, guid: ef0d740b070731e40ba5e7273a8edf3a, type: 3}
    - time: 0.33333334
      value: {fileID: -873053271135208160, guid: ef0d740b070731e40ba5e7273a8edf3a, type: 3}
    - time: 0.41666666
      value: {fileID: -6521987534245006760, guid: ef0d740b070731e40ba5e7273a8edf3a, type: 3}
    - time: 0.5
      value: {fileID: -5530090415158333007, guid: ef0d740b070731e40ba5e7273a8edf3a, type: 3}
    - time: 0.5833333
      value: {fileID: 5476240660434282380, guid: ef0d740b070731e40ba5e7273a8edf3a, type: 3}
    - time: 0.6666667
      value: {fileID: -5929173250510154069, guid: ef0d740b070731e40ba5e7273a8edf3a, type: 3}
    - time: 0.75
      value: {fileID: -2330298990590655495, guid: ef0d740b070731e40ba5e7273a8edf3a, type: 3}
    attribute: m_Sprite
    path: 
    classID: 212
    script: {fileID: 0}
  m_SampleRate: 60
  m_WrapMode: 0
  m_Bounds:
    m_Center: {x: 0, y: 0, z: 0}
    m_Extent: {x: 0, y: 0, z: 0}
  m_ClipBindingConstant:
    genericBindings:
    - serializedVersion: 2
      path: 0
      attribute: 3
      script: {fileID: 0}
      typeID: 4
      customType: 0
      isPPtrCurve: 0
    - serializedVersion: 2
      path: 0
      attribute: 0
      script: {fileID: 0}
      typeID: 212
      customType: 23
      isPPtrCurve: 1
    pptrCurveMapping:
    - {fileID: -2157860968071862633, guid: ef0d740b070731e40ba5e7273a8edf3a, type: 3}
    - {fileID: 6244746214015071090, guid: ef0d740b070731e40ba5e7273a8edf3a, type: 3}
    - {fileID: 5542081143093487373, guid: ef0d740b070731e40ba5e7273a8edf3a, type: 3}
    - {fileID: -6557463760738191070, guid: ef0d740b070731e40ba5e7273a8edf3a, type: 3}
    - {fileID: -873053271135208160, guid: ef0d740b070731e40ba5e7273a8edf3a, type: 3}
    - {fileID: -6521987534245006760, guid: ef0d740b070731e40ba5e7273a8edf3a, type: 3}
    - {fileID: -5530090415158333007, guid: ef0d740b070731e40ba5e7273a8edf3a, type: 3}
    - {fileID: 5476240660434282380, guid: ef0d740b070731e40ba5e7273a8edf3a, type: 3}
    - {fileID: -5929173250510154069, guid: ef0d740b070731e40ba5e7273a8edf3a, type: 3}
    - {fileID: -2330298990590655495, guid: ef0d740b070731e40ba5e7273a8edf3a, type: 3}
  m_AnimationClipSettings:
    serializedVersion: 2
    m_AdditiveReferencePoseClip: {fileID: 0}
    m_AdditiveReferencePoseTime: 0
    m_StartTime: 0
    m_StopTime: 0.76666665
    m_OrientationOffsetY: 0
    m_Level: 0
    m_CycleOffset: 0
    m_HasAdditiveReferencePose: 0
    m_LoopTime: 0
    m_LoopBlend: 0
    m_LoopBlendOrientation: 0
    m_LoopBlendPositionY: 0
    m_LoopBlendPositionXZ: 0
    m_KeepOriginalOrientation: 0
    m_KeepOriginalPositionY: 1
    m_KeepOriginalPositionXZ: 0
    m_HeightFromFeet: 0
    m_Mirror: 0
  m_EditorCurves:
  - curve:
      serializedVersion: 2
      m_Curve:
      - serializedVersion: 3
        time: 0
        value: 0.5
        inSlope: 0
        outSlope: 0
        tangentMode: 136
        weightedMode: 0
        inWeight: 0.33333334
        outWeight: 0.33333334
      - serializedVersion: 3
        time: 0.75
        value: 3
        inSlope: 0
        outSlope: 0
        tangentMode: 136
        weightedMode: 0
        inWeight: 0.33333334
        outWeight: 0.33333334
      m_PreInfinity: 2
      m_PostInfinity: 2
      m_RotationOrder: 4
    attribute: m_LocalScale.x
    path: 
    classID: 4
    script: {fileID: 0}
  - curve:
      serializedVersion: 2
      m_Curve:
      - serializedVersion: 3
        time: 0
        value: 0.5
        inSlope: 0
        outSlope: 0
        tangentMode: 136
        weightedMode: 0
        inWeight: 0.33333334
        outWeight: 0.33333334
      - serializedVersion: 3
        time: 0.75
        value: 3
        inSlope: 0
        outSlope: 0
        tangentMode: 136
        weightedMode: 0
        inWeight: 0.33333334
        outWeight: 0.33333334
      m_PreInfinity: 2
      m_PostInfinity: 2
      m_RotationOrder: 4
    attribute: m_LocalScale.y
    path: 
    classID: 4
    script: {fileID: 0}
  - curve:
      serializedVersion: 2
      m_Curve:
      - serializedVersion: 3
        time: 0
        value: 1
        inSlope: 0
        outSlope: 0
        tangentMode: 136
        weightedMode: 0
        inWeight: 0.33333334
        outWeight: 0.33333334
      - serializedVersion: 3
        time: 0.75
        value: 1
        inSlope: 0
        outSlope: 0
        tangentMode: 136
        weightedMode: 0
        inWeight: 0.33333334
        outWeight: 0.33333334
      m_PreInfinity: 2
      m_PostInfinity: 2
      m_RotationOrder: 4
    attribute: m_LocalScale.z
    path: 
    classID: 4
    script: {fileID: 0}
  m_EulerEditorCurves: []
  m_HasGenericRootTransform: 0
  m_HasMotionFloatCurves: 0
  m_Events: []
