%YAML 1.1
%TAG !u! tag:unity3d.com,2011:
--- !u!74 &7400000
AnimationClip:
  m_ObjectHideFlags: 0
  m_CorrespondingSourceObject: {fileID: 0}
  m_PrefabInstance: {fileID: 0}
  m_PrefabAsset: {fileID: 0}
  m_Name: Shoggoth
  serializedVersion: 6
  m_Legacy: 0
  m_Compressed: 0
  m_UseHighQualityCurve: 1
  m_RotationCurves: []
  m_CompressedRotationCurves: []
  m_EulerCurves: []
  m_PositionCurves: []
  m_ScaleCurves: []
  m_FloatCurves: []
  m_PPtrCurves:
  - curve:
    - time: 0
      value: {fileID: -950363992753189413, guid: 639095602bf1ab848a98c581230bb5a0, type: 3}
    - time: 0.016666668
      value: {fileID: -1253837159679456727, guid: 639095602bf1ab848a98c581230bb5a0, type: 3}
    - time: 0.033333335
      value: {fileID: 6199875779624530068, guid: 639095602bf1ab848a98c581230bb5a0, type: 3}
    - time: 0.05
      value: {fileID: -7457744315081637950, guid: 639095602bf1ab848a98c581230bb5a0, type: 3}
    - time: 0.06666667
      value: {fileID: 5832344384108836401, guid: 639095602bf1ab848a98c581230bb5a0, type: 3}
    - time: 0.083333336
      value: {fileID: 3933747093263563921, guid: 639095602bf1ab848a98c581230bb5a0, type: 3}
    - time: 0.1
      value: {fileID: 902720186115053176, guid: 639095602bf1ab848a98c581230bb5a0, type: 3}
    - time: 0.11666667
      value: {fileID: -5082642730719522909, guid: 639095602bf1ab848a98c581230bb5a0, type: 3}
    - time: 0.13333334
      value: {fileID: 5134583988890790076, guid: 639095602bf1ab848a98c581230bb5a0, type: 3}
    - time: 0.15
      value: {fileID: -705611737093618899, guid: 639095602bf1ab848a98c581230bb5a0, type: 3}
    - time: 0.16666667
      value: {fileID: -6189149868401739851, guid: 639095602bf1ab848a98c581230bb5a0, type: 3}
    - time: 0.18333334
      value: {fileID: -2388708459892950081, guid: 639095602bf1ab848a98c581230bb5a0, type: 3}
    - time: 0.2
      value: {fileID: 1589217087409296556, guid: 639095602bf1ab848a98c581230bb5a0, type: 3}
    - time: 0.21666667
      value: {fileID: -5031402738839328658, guid: 639095602bf1ab848a98c581230bb5a0, type: 3}
    - time: 0.23333333
      value: {fileID: -2082615748887000835, guid: 639095602bf1ab848a98c581230bb5a0, type: 3}
    - time: 0.25
      value: {fileID: -8469068934125435664, guid: 639095602bf1ab848a98c581230bb5a0, type: 3}
    - time: 0.26666668
      value: {fileID: 8881473974882630338, guid: 639095602bf1ab848a98c581230bb5a0, type: 3}
    - time: 0.28333333
      value: {fileID: 1683079197400287561, guid: 639095602bf1ab848a98c581230bb5a0, type: 3}
    - time: 0.3
      value: {fileID: -7943779854044943864, guid: 639095602bf1ab848a98c581230bb5a0, type: 3}
    - time: 0.31666666
      value: {fileID: -5694912148201820007, guid: 639095602bf1ab848a98c581230bb5a0, type: 3}
    - time: 0.33333334
      value: {fileID: 5811808502801436623, guid: 639095602bf1ab848a98c581230bb5a0, type: 3}
    - time: 0.35
      value: {fileID: -6328565943579180733, guid: 639095602bf1ab848a98c581230bb5a0, type: 3}
    - time: 0.36666667
      value: {fileID: 7752960195423932556, guid: 639095602bf1ab848a98c581230bb5a0, type: 3}
    - time: 0.38333333
      value: {fileID: 1968862149561257550, guid: 639095602bf1ab848a98c581230bb5a0, type: 3}
    - time: 0.4
      value: {fileID: -3251043406423013706, guid: 639095602bf1ab848a98c581230bb5a0, type: 3}
    - time: 0.41666666
      value: {fileID: 7152341839235057061, guid: 639095602bf1ab848a98c581230bb5a0, type: 3}
    - time: 0.43333334
      value: {fileID: -4684069402494524287, guid: 639095602bf1ab848a98c581230bb5a0, type: 3}
    - time: 0.45
      value: {fileID: 4396600288847964228, guid: 639095602bf1ab848a98c581230bb5a0, type: 3}
    - time: 0.46666667
      value: {fileID: 2569420225358461453, guid: 639095602bf1ab848a98c581230bb5a0, type: 3}
    - time: 0.48333332
      value: {fileID: 4734195582419070329, guid: 639095602bf1ab848a98c581230bb5a0, type: 3}
    - time: 0.5
      value: {fileID: 2166104546664423908, guid: 639095602bf1ab848a98c581230bb5a0, type: 3}
    - time: 0.51666665
      value: {fileID: 4976744248248150910, guid: 639095602bf1ab848a98c581230bb5a0, type: 3}
    - time: 0.53333336
      value: {fileID: -357619473301531996, guid: 639095602bf1ab848a98c581230bb5a0, type: 3}
    - time: 0.55
      value: {fileID: -3915962435082052061, guid: 639095602bf1ab848a98c581230bb5a0, type: 3}
    - time: 0.56666666
      value: {fileID: 8624158701355319007, guid: 639095602bf1ab848a98c581230bb5a0, type: 3}
    - time: 0.5833333
      value: {fileID: 1321233503190975532, guid: 639095602bf1ab848a98c581230bb5a0, type: 3}
    - time: 0.6
      value: {fileID: 2317884504259613022, guid: 639095602bf1ab848a98c581230bb5a0, type: 3}
    - time: 0.6166667
      value: {fileID: 2793412252637712684, guid: 639095602bf1ab848a98c581230bb5a0, type: 3}
    - time: 0.6333333
      value: {fileID: 4118738392383534844, guid: 639095602bf1ab848a98c581230bb5a0, type: 3}
    attribute: m_Sprite
    path: 
    classID: 114
    script: {fileID: 11500000, guid: fe87c0e1cc204ed48ad3b37840f39efc, type: 3}
  m_SampleRate: 60
  m_WrapMode: 0
  m_Bounds:
    m_Center: {x: 0, y: 0, z: 0}
    m_Extent: {x: 0, y: 0, z: 0}
  m_ClipBindingConstant:
    genericBindings:
    - serializedVersion: 2
      path: 0
      attribute: 2015549526
      script: {fileID: 11500000, guid: fe87c0e1cc204ed48ad3b37840f39efc, type: 3}
      typeID: 114
      customType: 0
      isPPtrCurve: 1
    pptrCurveMapping:
    - {fileID: -950363992753189413, guid: 639095602bf1ab848a98c581230bb5a0, type: 3}
    - {fileID: -1253837159679456727, guid: 639095602bf1ab848a98c581230bb5a0, type: 3}
    - {fileID: 6199875779624530068, guid: 639095602bf1ab848a98c581230bb5a0, type: 3}
    - {fileID: -7457744315081637950, guid: 639095602bf1ab848a98c581230bb5a0, type: 3}
    - {fileID: 5832344384108836401, guid: 639095602bf1ab848a98c581230bb5a0, type: 3}
    - {fileID: 3933747093263563921, guid: 639095602bf1ab848a98c581230bb5a0, type: 3}
    - {fileID: 902720186115053176, guid: 639095602bf1ab848a98c581230bb5a0, type: 3}
    - {fileID: -5082642730719522909, guid: 639095602bf1ab848a98c581230bb5a0, type: 3}
    - {fileID: 5134583988890790076, guid: 639095602bf1ab848a98c581230bb5a0, type: 3}
    - {fileID: -705611737093618899, guid: 639095602bf1ab848a98c581230bb5a0, type: 3}
    - {fileID: -6189149868401739851, guid: 639095602bf1ab848a98c581230bb5a0, type: 3}
    - {fileID: -2388708459892950081, guid: 639095602bf1ab848a98c581230bb5a0, type: 3}
    - {fileID: 1589217087409296556, guid: 639095602bf1ab848a98c581230bb5a0, type: 3}
    - {fileID: -5031402738839328658, guid: 639095602bf1ab848a98c581230bb5a0, type: 3}
    - {fileID: -2082615748887000835, guid: 639095602bf1ab848a98c581230bb5a0, type: 3}
    - {fileID: -8469068934125435664, guid: 639095602bf1ab848a98c581230bb5a0, type: 3}
    - {fileID: 8881473974882630338, guid: 639095602bf1ab848a98c581230bb5a0, type: 3}
    - {fileID: 1683079197400287561, guid: 639095602bf1ab848a98c581230bb5a0, type: 3}
    - {fileID: -7943779854044943864, guid: 639095602bf1ab848a98c581230bb5a0, type: 3}
    - {fileID: -5694912148201820007, guid: 639095602bf1ab848a98c581230bb5a0, type: 3}
    - {fileID: 5811808502801436623, guid: 639095602bf1ab848a98c581230bb5a0, type: 3}
    - {fileID: -6328565943579180733, guid: 639095602bf1ab848a98c581230bb5a0, type: 3}
    - {fileID: 7752960195423932556, guid: 639095602bf1ab848a98c581230bb5a0, type: 3}
    - {fileID: 1968862149561257550, guid: 639095602bf1ab848a98c581230bb5a0, type: 3}
    - {fileID: -3251043406423013706, guid: 639095602bf1ab848a98c581230bb5a0, type: 3}
    - {fileID: 7152341839235057061, guid: 639095602bf1ab848a98c581230bb5a0, type: 3}
    - {fileID: -4684069402494524287, guid: 639095602bf1ab848a98c581230bb5a0, type: 3}
    - {fileID: 4396600288847964228, guid: 639095602bf1ab848a98c581230bb5a0, type: 3}
    - {fileID: 2569420225358461453, guid: 639095602bf1ab848a98c581230bb5a0, type: 3}
    - {fileID: 4734195582419070329, guid: 639095602bf1ab848a98c581230bb5a0, type: 3}
    - {fileID: 2166104546664423908, guid: 639095602bf1ab848a98c581230bb5a0, type: 3}
    - {fileID: 4976744248248150910, guid: 639095602bf1ab848a98c581230bb5a0, type: 3}
    - {fileID: -357619473301531996, guid: 639095602bf1ab848a98c581230bb5a0, type: 3}
    - {fileID: -3915962435082052061, guid: 639095602bf1ab848a98c581230bb5a0, type: 3}
    - {fileID: 8624158701355319007, guid: 639095602bf1ab848a98c581230bb5a0, type: 3}
    - {fileID: 1321233503190975532, guid: 639095602bf1ab848a98c581230bb5a0, type: 3}
    - {fileID: 2317884504259613022, guid: 639095602bf1ab848a98c581230bb5a0, type: 3}
    - {fileID: 2793412252637712684, guid: 639095602bf1ab848a98c581230bb5a0, type: 3}
    - {fileID: 4118738392383534844, guid: 639095602bf1ab848a98c581230bb5a0, type: 3}
  m_AnimationClipSettings:
    serializedVersion: 2
    m_AdditiveReferencePoseClip: {fileID: 0}
    m_AdditiveReferencePoseTime: 0
    m_StartTime: 0
    m_StopTime: 0.65
    m_OrientationOffsetY: 0
    m_Level: 0
    m_CycleOffset: 0
    m_HasAdditiveReferencePose: 0
    m_LoopTime: 1
    m_LoopBlend: 0
    m_LoopBlendOrientation: 0
    m_LoopBlendPositionY: 0
    m_LoopBlendPositionXZ: 0
    m_KeepOriginalOrientation: 0
    m_KeepOriginalPositionY: 1
    m_KeepOriginalPositionXZ: 0
    m_HeightFromFeet: 0
    m_Mirror: 0
  m_EditorCurves: []
  m_EulerEditorCurves: []
  m_HasGenericRootTransform: 0
  m_HasMotionFloatCurves: 0
  m_Events: []
