%YAML 1.1
%TAG !u! tag:unity3d.com,2011:
--- !u!74 &7400000
AnimationClip:
  m_ObjectHideFlags: 0
  m_CorrespondingSourceObject: {fileID: 0}
  m_PrefabInstance: {fileID: 0}
  m_PrefabAsset: {fileID: 0}
  m_Name: CandleIdle
  serializedVersion: 6
  m_Legacy: 0
  m_Compressed: 0
  m_UseHighQualityCurve: 1
  m_RotationCurves: []
  m_CompressedRotationCurves: []
  m_EulerCurves: []
  m_PositionCurves: []
  m_ScaleCurves: []
  m_FloatCurves: []
  m_PPtrCurves:
  - curve:
    - time: 0
      value: {fileID: 7937142081344956159, guid: e11d62bc09c28ba4eabe8f635d175e15, type: 3}
    - time: 0.083333336
      value: {fileID: 2501753165039695016, guid: e11d62bc09c28ba4eabe8f635d175e15, type: 3}
    - time: 0.16666667
      value: {fileID: -5362792117366891876, guid: e11d62bc09c28ba4eabe8f635d175e15, type: 3}
    - time: 0.25
      value: {fileID: -8826423545251740161, guid: e11d62bc09c28ba4eabe8f635d175e15, type: 3}
    - time: 0.33333334
      value: {fileID: -8684545924897379337, guid: e11d62bc09c28ba4eabe8f635d175e15, type: 3}
    - time: 0.41666666
      value: {fileID: 1727321968390433748, guid: e11d62bc09c28ba4eabe8f635d175e15, type: 3}
    - time: 0.5
      value: {fileID: -8733280961712847722, guid: e11d62bc09c28ba4eabe8f635d175e15, type: 3}
    - time: 0.5833333
      value: {fileID: 1800599218410383254, guid: e11d62bc09c28ba4eabe8f635d175e15, type: 3}
    - time: 0.6666667
      value: {fileID: -643069485295017470, guid: e11d62bc09c28ba4eabe8f635d175e15, type: 3}
    - time: 0.75
      value: {fileID: 5708722306092680552, guid: e11d62bc09c28ba4eabe8f635d175e15, type: 3}
    - time: 0.8333333
      value: {fileID: 6770832247885725689, guid: e11d62bc09c28ba4eabe8f635d175e15, type: 3}
    - time: 0.9166667
      value: {fileID: -2571139288704940650, guid: e11d62bc09c28ba4eabe8f635d175e15, type: 3}
    - time: 1
      value: {fileID: -3443804185154665150, guid: e11d62bc09c28ba4eabe8f635d175e15, type: 3}
    - time: 1.0833334
      value: {fileID: 4204682400758960727, guid: e11d62bc09c28ba4eabe8f635d175e15, type: 3}
    attribute: m_Sprite
    path: 
    classID: 212
    script: {fileID: 0}
  m_SampleRate: 60
  m_WrapMode: 0
  m_Bounds:
    m_Center: {x: 0, y: 0, z: 0}
    m_Extent: {x: 0, y: 0, z: 0}
  m_ClipBindingConstant:
    genericBindings:
    - serializedVersion: 2
      path: 0
      attribute: 0
      script: {fileID: 0}
      typeID: 212
      customType: 23
      isPPtrCurve: 1
    pptrCurveMapping:
    - {fileID: 7937142081344956159, guid: e11d62bc09c28ba4eabe8f635d175e15, type: 3}
    - {fileID: 2501753165039695016, guid: e11d62bc09c28ba4eabe8f635d175e15, type: 3}
    - {fileID: -5362792117366891876, guid: e11d62bc09c28ba4eabe8f635d175e15, type: 3}
    - {fileID: -8826423545251740161, guid: e11d62bc09c28ba4eabe8f635d175e15, type: 3}
    - {fileID: -8684545924897379337, guid: e11d62bc09c28ba4eabe8f635d175e15, type: 3}
    - {fileID: 1727321968390433748, guid: e11d62bc09c28ba4eabe8f635d175e15, type: 3}
    - {fileID: -8733280961712847722, guid: e11d62bc09c28ba4eabe8f635d175e15, type: 3}
    - {fileID: 1800599218410383254, guid: e11d62bc09c28ba4eabe8f635d175e15, type: 3}
    - {fileID: -643069485295017470, guid: e11d62bc09c28ba4eabe8f635d175e15, type: 3}
    - {fileID: 5708722306092680552, guid: e11d62bc09c28ba4eabe8f635d175e15, type: 3}
    - {fileID: 6770832247885725689, guid: e11d62bc09c28ba4eabe8f635d175e15, type: 3}
    - {fileID: -2571139288704940650, guid: e11d62bc09c28ba4eabe8f635d175e15, type: 3}
    - {fileID: -3443804185154665150, guid: e11d62bc09c28ba4eabe8f635d175e15, type: 3}
    - {fileID: 4204682400758960727, guid: e11d62bc09c28ba4eabe8f635d175e15, type: 3}
  m_AnimationClipSettings:
    serializedVersion: 2
    m_AdditiveReferencePoseClip: {fileID: 0}
    m_AdditiveReferencePoseTime: 0
    m_StartTime: 0
    m_StopTime: 1.1
    m_OrientationOffsetY: 0
    m_Level: 0
    m_CycleOffset: 0
    m_HasAdditiveReferencePose: 0
    m_LoopTime: 1
    m_LoopBlend: 0
    m_LoopBlendOrientation: 0
    m_LoopBlendPositionY: 0
    m_LoopBlendPositionXZ: 0
    m_KeepOriginalOrientation: 0
    m_KeepOriginalPositionY: 1
    m_KeepOriginalPositionXZ: 0
    m_HeightFromFeet: 0
    m_Mirror: 0
  m_EditorCurves: []
  m_EulerEditorCurves: []
  m_HasGenericRootTransform: 0
  m_HasMotionFloatCurves: 0
  m_Events: []
