%YAML 1.1
%TAG !u! tag:unity3d.com,2011:
--- !u!74 &7400000
AnimationClip:
  m_ObjectHideFlags: 0
  m_CorrespondingSourceObject: {fileID: 0}
  m_PrefabInstance: {fileID: 0}
  m_PrefabAsset: {fileID: 0}
  m_Name: PlaceIdle
  serializedVersion: 6
  m_Legacy: 0
  m_Compressed: 0
  m_UseHighQualityCurve: 1
  m_RotationCurves: []
  m_CompressedRotationCurves: []
  m_EulerCurves: []
  m_PositionCurves: []
  m_ScaleCurves: []
  m_FloatCurves:
  - curve:
      serializedVersion: 2
      m_Curve:
      - serializedVersion: 3
        time: 0
        value: 1
        inSlope: 0
        outSlope: 0
        tangentMode: 136
        weightedMode: 0
        inWeight: 0.33333334
        outWeight: 0.33333334
      - serializedVersion: 3
        time: 1.1166667
        value: 0.49019608
        inSlope: 0
        outSlope: 0
        tangentMode: 136
        weightedMode: 0
        inWeight: 0.33333334
        outWeight: 0.33333334
      - serializedVersion: 3
        time: 2.2333333
        value: 1
        inSlope: 0
        outSlope: 0
        tangentMode: 136
        weightedMode: 0
        inWeight: 0.33333334
        outWeight: 0.33333334
      - serializedVersion: 3
        time: 3.35
        value: 0.49019608
        inSlope: 0
        outSlope: 0
        tangentMode: 136
        weightedMode: 0
        inWeight: 0.33333334
        outWeight: 0.33333334
      - serializedVersion: 3
        time: 4.45
        value: 1
        inSlope: 0
        outSlope: 0
        tangentMode: 136
        weightedMode: 0
        inWeight: 0.33333334
        outWeight: 0.33333334
      m_PreInfinity: 2
      m_PostInfinity: 2
      m_RotationOrder: 4
    attribute: m_Color.a
    path: 
    classID: 212
    script: {fileID: 0}
  m_PPtrCurves:
  - curve:
    - time: 0
      value: {fileID: 1920481186496114349, guid: 4cbff1d2297806747bb730e639359cd3, type: 3}
    - time: 0.05
      value: {fileID: 45751585360816842, guid: 4cbff1d2297806747bb730e639359cd3, type: 3}
    - time: 0.1
      value: {fileID: -3182328321164620642, guid: 4cbff1d2297806747bb730e639359cd3, type: 3}
    - time: 0.15
      value: {fileID: 8033659889679083793, guid: 4cbff1d2297806747bb730e639359cd3, type: 3}
    - time: 0.2
      value: {fileID: 8525162231776264523, guid: 4cbff1d2297806747bb730e639359cd3, type: 3}
    - time: 0.25
      value: {fileID: -797005708797301960, guid: 4cbff1d2297806747bb730e639359cd3, type: 3}
    - time: 0.3
      value: {fileID: -6364977367246105394, guid: 4cbff1d2297806747bb730e639359cd3, type: 3}
    - time: 0.35
      value: {fileID: -6040008443582953872, guid: 4cbff1d2297806747bb730e639359cd3, type: 3}
    - time: 0.4
      value: {fileID: 1597990194150128372, guid: 4cbff1d2297806747bb730e639359cd3, type: 3}
    - time: 0.45
      value: {fileID: -5340280633644042105, guid: 4cbff1d2297806747bb730e639359cd3, type: 3}
    - time: 0.5
      value: {fileID: 9221201030124301208, guid: 4cbff1d2297806747bb730e639359cd3, type: 3}
    - time: 0.55
      value: {fileID: -6932523819931910059, guid: 4cbff1d2297806747bb730e639359cd3, type: 3}
    - time: 0.6
      value: {fileID: 8691233046994138585, guid: 4cbff1d2297806747bb730e639359cd3, type: 3}
    - time: 0.65
      value: {fileID: -3281449796240468966, guid: 4cbff1d2297806747bb730e639359cd3, type: 3}
    - time: 0.7
      value: {fileID: 2517830584013935228, guid: 4cbff1d2297806747bb730e639359cd3, type: 3}
    - time: 0.75
      value: {fileID: -7849149743211790731, guid: 4cbff1d2297806747bb730e639359cd3, type: 3}
    - time: 0.8
      value: {fileID: -949083484225710147, guid: 4cbff1d2297806747bb730e639359cd3, type: 3}
    - time: 0.85
      value: {fileID: -8469576362266387077, guid: 4cbff1d2297806747bb730e639359cd3, type: 3}
    - time: 0.9
      value: {fileID: 7310738507272724054, guid: 4cbff1d2297806747bb730e639359cd3, type: 3}
    - time: 0.95
      value: {fileID: 1862905232981325112, guid: 4cbff1d2297806747bb730e639359cd3, type: 3}
    - time: 1
      value: {fileID: 6310313842354790395, guid: 4cbff1d2297806747bb730e639359cd3, type: 3}
    - time: 1.05
      value: {fileID: -2190137766591205015, guid: 4cbff1d2297806747bb730e639359cd3, type: 3}
    - time: 1.1
      value: {fileID: -5799991660092271012, guid: 4cbff1d2297806747bb730e639359cd3, type: 3}
    - time: 1.15
      value: {fileID: -8873419627113970375, guid: 4cbff1d2297806747bb730e639359cd3, type: 3}
    - time: 1.2
      value: {fileID: -9203742822726096643, guid: 4cbff1d2297806747bb730e639359cd3, type: 3}
    - time: 1.25
      value: {fileID: 6552120691263144207, guid: 4cbff1d2297806747bb730e639359cd3, type: 3}
    - time: 1.3
      value: {fileID: -449770823966143457, guid: 4cbff1d2297806747bb730e639359cd3, type: 3}
    - time: 1.35
      value: {fileID: -1994945077240679366, guid: 4cbff1d2297806747bb730e639359cd3, type: 3}
    - time: 1.4
      value: {fileID: 6447700194735227923, guid: 4cbff1d2297806747bb730e639359cd3, type: 3}
    - time: 1.45
      value: {fileID: 789694354433045121, guid: 4cbff1d2297806747bb730e639359cd3, type: 3}
    - time: 1.5
      value: {fileID: 4380075256452919437, guid: 4cbff1d2297806747bb730e639359cd3, type: 3}
    - time: 1.55
      value: {fileID: -8930633376909123163, guid: 4cbff1d2297806747bb730e639359cd3, type: 3}
    - time: 1.6
      value: {fileID: -3011415047188136130, guid: 4cbff1d2297806747bb730e639359cd3, type: 3}
    - time: 1.65
      value: {fileID: -6793883656914996482, guid: 4cbff1d2297806747bb730e639359cd3, type: 3}
    - time: 1.7
      value: {fileID: 8934248231477086431, guid: 4cbff1d2297806747bb730e639359cd3, type: 3}
    - time: 1.75
      value: {fileID: 4610139514200009619, guid: 4cbff1d2297806747bb730e639359cd3, type: 3}
    - time: 1.8
      value: {fileID: -1574515035858526338, guid: 4cbff1d2297806747bb730e639359cd3, type: 3}
    - time: 1.85
      value: {fileID: 9065593256430425615, guid: 4cbff1d2297806747bb730e639359cd3, type: 3}
    - time: 1.9
      value: {fileID: 2159812841519666407, guid: 4cbff1d2297806747bb730e639359cd3, type: 3}
    - time: 1.95
      value: {fileID: -5422808539901617486, guid: 4cbff1d2297806747bb730e639359cd3, type: 3}
    - time: 2
      value: {fileID: 212620193330686278, guid: 4cbff1d2297806747bb730e639359cd3, type: 3}
    - time: 2.05
      value: {fileID: 8557004091354316714, guid: 4cbff1d2297806747bb730e639359cd3, type: 3}
    - time: 2.1
      value: {fileID: 7953760796762896058, guid: 4cbff1d2297806747bb730e639359cd3, type: 3}
    - time: 2.15
      value: {fileID: 1961090062583769854, guid: 4cbff1d2297806747bb730e639359cd3, type: 3}
    - time: 2.2
      value: {fileID: 2001176414457320589, guid: 4cbff1d2297806747bb730e639359cd3, type: 3}
    - time: 2.25
      value: {fileID: -1060350903479017184, guid: 4cbff1d2297806747bb730e639359cd3, type: 3}
    - time: 2.3
      value: {fileID: 5142934003407601993, guid: 4cbff1d2297806747bb730e639359cd3, type: 3}
    - time: 2.35
      value: {fileID: -7508354240715350049, guid: 4cbff1d2297806747bb730e639359cd3, type: 3}
    - time: 2.4
      value: {fileID: 2734951556961692631, guid: 4cbff1d2297806747bb730e639359cd3, type: 3}
    - time: 2.45
      value: {fileID: 4126277441725887380, guid: 4cbff1d2297806747bb730e639359cd3, type: 3}
    - time: 2.5
      value: {fileID: -5718220777989742701, guid: 4cbff1d2297806747bb730e639359cd3, type: 3}
    - time: 2.55
      value: {fileID: -6255353054877532566, guid: 4cbff1d2297806747bb730e639359cd3, type: 3}
    - time: 2.6
      value: {fileID: 8183393898681022494, guid: 4cbff1d2297806747bb730e639359cd3, type: 3}
    - time: 2.65
      value: {fileID: 1042938281969508401, guid: 4cbff1d2297806747bb730e639359cd3, type: 3}
    - time: 2.7
      value: {fileID: -1460669717419925645, guid: 4cbff1d2297806747bb730e639359cd3, type: 3}
    - time: 2.75
      value: {fileID: 4454464293228698910, guid: 4cbff1d2297806747bb730e639359cd3, type: 3}
    - time: 2.8
      value: {fileID: 5954063166694436521, guid: 4cbff1d2297806747bb730e639359cd3, type: 3}
    - time: 2.85
      value: {fileID: -1956843025464482897, guid: 4cbff1d2297806747bb730e639359cd3, type: 3}
    - time: 2.9
      value: {fileID: -8441408755588276592, guid: 4cbff1d2297806747bb730e639359cd3, type: 3}
    - time: 2.95
      value: {fileID: 2683169971357308625, guid: 4cbff1d2297806747bb730e639359cd3, type: 3}
    - time: 3
      value: {fileID: -5211592964689349162, guid: 4cbff1d2297806747bb730e639359cd3, type: 3}
    - time: 3.05
      value: {fileID: -2332066800963100776, guid: 4cbff1d2297806747bb730e639359cd3, type: 3}
    - time: 3.1
      value: {fileID: -3312748629742208940, guid: 4cbff1d2297806747bb730e639359cd3, type: 3}
    - time: 3.15
      value: {fileID: -9088890097697331184, guid: 4cbff1d2297806747bb730e639359cd3, type: 3}
    - time: 3.2
      value: {fileID: -5007306131064993274, guid: 4cbff1d2297806747bb730e639359cd3, type: 3}
    - time: 3.25
      value: {fileID: 7990772430536168007, guid: 4cbff1d2297806747bb730e639359cd3, type: 3}
    - time: 3.3
      value: {fileID: -4383319010078355611, guid: 4cbff1d2297806747bb730e639359cd3, type: 3}
    - time: 3.35
      value: {fileID: 4812067186714798575, guid: 4cbff1d2297806747bb730e639359cd3, type: 3}
    - time: 3.4
      value: {fileID: -2996104224013494433, guid: 4cbff1d2297806747bb730e639359cd3, type: 3}
    - time: 3.45
      value: {fileID: 662593613472347440, guid: 4cbff1d2297806747bb730e639359cd3, type: 3}
    - time: 3.5
      value: {fileID: -7909092692737789037, guid: 4cbff1d2297806747bb730e639359cd3, type: 3}
    - time: 3.55
      value: {fileID: 5983519649686350591, guid: 4cbff1d2297806747bb730e639359cd3, type: 3}
    - time: 3.6
      value: {fileID: -1071122846412420552, guid: 4cbff1d2297806747bb730e639359cd3, type: 3}
    - time: 3.65
      value: {fileID: 7953340840038582777, guid: 4cbff1d2297806747bb730e639359cd3, type: 3}
    - time: 3.7
      value: {fileID: 1800270815800748619, guid: 4cbff1d2297806747bb730e639359cd3, type: 3}
    - time: 3.75
      value: {fileID: -3802975882051835866, guid: 4cbff1d2297806747bb730e639359cd3, type: 3}
    - time: 3.8
      value: {fileID: 7357402541862013963, guid: 4cbff1d2297806747bb730e639359cd3, type: 3}
    - time: 3.85
      value: {fileID: 1854269481483904990, guid: 4cbff1d2297806747bb730e639359cd3, type: 3}
    - time: 3.9
      value: {fileID: 4732780415729525222, guid: 4cbff1d2297806747bb730e639359cd3, type: 3}
    - time: 3.95
      value: {fileID: -69884679266984748, guid: 4cbff1d2297806747bb730e639359cd3, type: 3}
    - time: 4
      value: {fileID: 8038524469968807907, guid: 4cbff1d2297806747bb730e639359cd3, type: 3}
    - time: 4.05
      value: {fileID: -5809647670741381239, guid: 4cbff1d2297806747bb730e639359cd3, type: 3}
    - time: 4.1
      value: {fileID: 5135573119427302222, guid: 4cbff1d2297806747bb730e639359cd3, type: 3}
    - time: 4.15
      value: {fileID: -453489486769245279, guid: 4cbff1d2297806747bb730e639359cd3, type: 3}
    - time: 4.2
      value: {fileID: -4544689757191932004, guid: 4cbff1d2297806747bb730e639359cd3, type: 3}
    - time: 4.25
      value: {fileID: -722238822058616825, guid: 4cbff1d2297806747bb730e639359cd3, type: 3}
    - time: 4.3
      value: {fileID: 5051300803609118917, guid: 4cbff1d2297806747bb730e639359cd3, type: 3}
    - time: 4.35
      value: {fileID: 7489235264510661472, guid: 4cbff1d2297806747bb730e639359cd3, type: 3}
    - time: 4.4
      value: {fileID: 6041488671811937022, guid: 4cbff1d2297806747bb730e639359cd3, type: 3}
    - time: 4.45
      value: {fileID: -7355989742213766332, guid: 4cbff1d2297806747bb730e639359cd3, type: 3}
    attribute: m_Sprite
    path: 
    classID: 212
    script: {fileID: 0}
  m_SampleRate: 60
  m_WrapMode: 0
  m_Bounds:
    m_Center: {x: 0, y: 0, z: 0}
    m_Extent: {x: 0, y: 0, z: 0}
  m_ClipBindingConstant:
    genericBindings:
    - serializedVersion: 2
      path: 0
      attribute: 304273561
      script: {fileID: 0}
      typeID: 212
      customType: 0
      isPPtrCurve: 0
    - serializedVersion: 2
      path: 0
      attribute: 0
      script: {fileID: 0}
      typeID: 212
      customType: 23
      isPPtrCurve: 1
    pptrCurveMapping:
    - {fileID: 1920481186496114349, guid: 4cbff1d2297806747bb730e639359cd3, type: 3}
    - {fileID: 45751585360816842, guid: 4cbff1d2297806747bb730e639359cd3, type: 3}
    - {fileID: -3182328321164620642, guid: 4cbff1d2297806747bb730e639359cd3, type: 3}
    - {fileID: 8033659889679083793, guid: 4cbff1d2297806747bb730e639359cd3, type: 3}
    - {fileID: 8525162231776264523, guid: 4cbff1d2297806747bb730e639359cd3, type: 3}
    - {fileID: -797005708797301960, guid: 4cbff1d2297806747bb730e639359cd3, type: 3}
    - {fileID: -6364977367246105394, guid: 4cbff1d2297806747bb730e639359cd3, type: 3}
    - {fileID: -6040008443582953872, guid: 4cbff1d2297806747bb730e639359cd3, type: 3}
    - {fileID: 1597990194150128372, guid: 4cbff1d2297806747bb730e639359cd3, type: 3}
    - {fileID: -5340280633644042105, guid: 4cbff1d2297806747bb730e639359cd3, type: 3}
    - {fileID: 9221201030124301208, guid: 4cbff1d2297806747bb730e639359cd3, type: 3}
    - {fileID: -6932523819931910059, guid: 4cbff1d2297806747bb730e639359cd3, type: 3}
    - {fileID: 8691233046994138585, guid: 4cbff1d2297806747bb730e639359cd3, type: 3}
    - {fileID: -3281449796240468966, guid: 4cbff1d2297806747bb730e639359cd3, type: 3}
    - {fileID: 2517830584013935228, guid: 4cbff1d2297806747bb730e639359cd3, type: 3}
    - {fileID: -7849149743211790731, guid: 4cbff1d2297806747bb730e639359cd3, type: 3}
    - {fileID: -949083484225710147, guid: 4cbff1d2297806747bb730e639359cd3, type: 3}
    - {fileID: -8469576362266387077, guid: 4cbff1d2297806747bb730e639359cd3, type: 3}
    - {fileID: 7310738507272724054, guid: 4cbff1d2297806747bb730e639359cd3, type: 3}
    - {fileID: 1862905232981325112, guid: 4cbff1d2297806747bb730e639359cd3, type: 3}
    - {fileID: 6310313842354790395, guid: 4cbff1d2297806747bb730e639359cd3, type: 3}
    - {fileID: -2190137766591205015, guid: 4cbff1d2297806747bb730e639359cd3, type: 3}
    - {fileID: -5799991660092271012, guid: 4cbff1d2297806747bb730e639359cd3, type: 3}
    - {fileID: -8873419627113970375, guid: 4cbff1d2297806747bb730e639359cd3, type: 3}
    - {fileID: -9203742822726096643, guid: 4cbff1d2297806747bb730e639359cd3, type: 3}
    - {fileID: 6552120691263144207, guid: 4cbff1d2297806747bb730e639359cd3, type: 3}
    - {fileID: -449770823966143457, guid: 4cbff1d2297806747bb730e639359cd3, type: 3}
    - {fileID: -1994945077240679366, guid: 4cbff1d2297806747bb730e639359cd3, type: 3}
    - {fileID: 6447700194735227923, guid: 4cbff1d2297806747bb730e639359cd3, type: 3}
    - {fileID: 789694354433045121, guid: 4cbff1d2297806747bb730e639359cd3, type: 3}
    - {fileID: 4380075256452919437, guid: 4cbff1d2297806747bb730e639359cd3, type: 3}
    - {fileID: -8930633376909123163, guid: 4cbff1d2297806747bb730e639359cd3, type: 3}
    - {fileID: -3011415047188136130, guid: 4cbff1d2297806747bb730e639359cd3, type: 3}
    - {fileID: -6793883656914996482, guid: 4cbff1d2297806747bb730e639359cd3, type: 3}
    - {fileID: 8934248231477086431, guid: 4cbff1d2297806747bb730e639359cd3, type: 3}
    - {fileID: 4610139514200009619, guid: 4cbff1d2297806747bb730e639359cd3, type: 3}
    - {fileID: -1574515035858526338, guid: 4cbff1d2297806747bb730e639359cd3, type: 3}
    - {fileID: 9065593256430425615, guid: 4cbff1d2297806747bb730e639359cd3, type: 3}
    - {fileID: 2159812841519666407, guid: 4cbff1d2297806747bb730e639359cd3, type: 3}
    - {fileID: -5422808539901617486, guid: 4cbff1d2297806747bb730e639359cd3, type: 3}
    - {fileID: 212620193330686278, guid: 4cbff1d2297806747bb730e639359cd3, type: 3}
    - {fileID: 8557004091354316714, guid: 4cbff1d2297806747bb730e639359cd3, type: 3}
    - {fileID: 7953760796762896058, guid: 4cbff1d2297806747bb730e639359cd3, type: 3}
    - {fileID: 1961090062583769854, guid: 4cbff1d2297806747bb730e639359cd3, type: 3}
    - {fileID: 2001176414457320589, guid: 4cbff1d2297806747bb730e639359cd3, type: 3}
    - {fileID: -1060350903479017184, guid: 4cbff1d2297806747bb730e639359cd3, type: 3}
    - {fileID: 5142934003407601993, guid: 4cbff1d2297806747bb730e639359cd3, type: 3}
    - {fileID: -7508354240715350049, guid: 4cbff1d2297806747bb730e639359cd3, type: 3}
    - {fileID: 2734951556961692631, guid: 4cbff1d2297806747bb730e639359cd3, type: 3}
    - {fileID: 4126277441725887380, guid: 4cbff1d2297806747bb730e639359cd3, type: 3}
    - {fileID: -5718220777989742701, guid: 4cbff1d2297806747bb730e639359cd3, type: 3}
    - {fileID: -6255353054877532566, guid: 4cbff1d2297806747bb730e639359cd3, type: 3}
    - {fileID: 8183393898681022494, guid: 4cbff1d2297806747bb730e639359cd3, type: 3}
    - {fileID: 1042938281969508401, guid: 4cbff1d2297806747bb730e639359cd3, type: 3}
    - {fileID: -1460669717419925645, guid: 4cbff1d2297806747bb730e639359cd3, type: 3}
    - {fileID: 4454464293228698910, guid: 4cbff1d2297806747bb730e639359cd3, type: 3}
    - {fileID: 5954063166694436521, guid: 4cbff1d2297806747bb730e639359cd3, type: 3}
    - {fileID: -1956843025464482897, guid: 4cbff1d2297806747bb730e639359cd3, type: 3}
    - {fileID: -8441408755588276592, guid: 4cbff1d2297806747bb730e639359cd3, type: 3}
    - {fileID: 2683169971357308625, guid: 4cbff1d2297806747bb730e639359cd3, type: 3}
    - {fileID: -5211592964689349162, guid: 4cbff1d2297806747bb730e639359cd3, type: 3}
    - {fileID: -2332066800963100776, guid: 4cbff1d2297806747bb730e639359cd3, type: 3}
    - {fileID: -3312748629742208940, guid: 4cbff1d2297806747bb730e639359cd3, type: 3}
    - {fileID: -9088890097697331184, guid: 4cbff1d2297806747bb730e639359cd3, type: 3}
    - {fileID: -5007306131064993274, guid: 4cbff1d2297806747bb730e639359cd3, type: 3}
    - {fileID: 7990772430536168007, guid: 4cbff1d2297806747bb730e639359cd3, type: 3}
    - {fileID: -4383319010078355611, guid: 4cbff1d2297806747bb730e639359cd3, type: 3}
    - {fileID: 4812067186714798575, guid: 4cbff1d2297806747bb730e639359cd3, type: 3}
    - {fileID: -2996104224013494433, guid: 4cbff1d2297806747bb730e639359cd3, type: 3}
    - {fileID: 662593613472347440, guid: 4cbff1d2297806747bb730e639359cd3, type: 3}
    - {fileID: -7909092692737789037, guid: 4cbff1d2297806747bb730e639359cd3, type: 3}
    - {fileID: 5983519649686350591, guid: 4cbff1d2297806747bb730e639359cd3, type: 3}
    - {fileID: -1071122846412420552, guid: 4cbff1d2297806747bb730e639359cd3, type: 3}
    - {fileID: 7953340840038582777, guid: 4cbff1d2297806747bb730e639359cd3, type: 3}
    - {fileID: 1800270815800748619, guid: 4cbff1d2297806747bb730e639359cd3, type: 3}
    - {fileID: -3802975882051835866, guid: 4cbff1d2297806747bb730e639359cd3, type: 3}
    - {fileID: 7357402541862013963, guid: 4cbff1d2297806747bb730e639359cd3, type: 3}
    - {fileID: 1854269481483904990, guid: 4cbff1d2297806747bb730e639359cd3, type: 3}
    - {fileID: 4732780415729525222, guid: 4cbff1d2297806747bb730e639359cd3, type: 3}
    - {fileID: -69884679266984748, guid: 4cbff1d2297806747bb730e639359cd3, type: 3}
    - {fileID: 8038524469968807907, guid: 4cbff1d2297806747bb730e639359cd3, type: 3}
    - {fileID: -5809647670741381239, guid: 4cbff1d2297806747bb730e639359cd3, type: 3}
    - {fileID: 5135573119427302222, guid: 4cbff1d2297806747bb730e639359cd3, type: 3}
    - {fileID: -453489486769245279, guid: 4cbff1d2297806747bb730e639359cd3, type: 3}
    - {fileID: -4544689757191932004, guid: 4cbff1d2297806747bb730e639359cd3, type: 3}
    - {fileID: -722238822058616825, guid: 4cbff1d2297806747bb730e639359cd3, type: 3}
    - {fileID: 5051300803609118917, guid: 4cbff1d2297806747bb730e639359cd3, type: 3}
    - {fileID: 7489235264510661472, guid: 4cbff1d2297806747bb730e639359cd3, type: 3}
    - {fileID: 6041488671811937022, guid: 4cbff1d2297806747bb730e639359cd3, type: 3}
    - {fileID: -7355989742213766332, guid: 4cbff1d2297806747bb730e639359cd3, type: 3}
  m_AnimationClipSettings:
    serializedVersion: 2
    m_AdditiveReferencePoseClip: {fileID: 0}
    m_AdditiveReferencePoseTime: 0
    m_StartTime: 0
    m_StopTime: 4.4666667
    m_OrientationOffsetY: 0
    m_Level: 0
    m_CycleOffset: 0
    m_HasAdditiveReferencePose: 0
    m_LoopTime: 1
    m_LoopBlend: 0
    m_LoopBlendOrientation: 0
    m_LoopBlendPositionY: 0
    m_LoopBlendPositionXZ: 0
    m_KeepOriginalOrientation: 0
    m_KeepOriginalPositionY: 1
    m_KeepOriginalPositionXZ: 0
    m_HeightFromFeet: 0
    m_Mirror: 0
  m_EditorCurves:
  - curve:
      serializedVersion: 2
      m_Curve:
      - serializedVersion: 3
        time: 0
        value: 1
        inSlope: 0
        outSlope: 0
        tangentMode: 136
        weightedMode: 0
        inWeight: 0.33333334
        outWeight: 0.33333334
      - serializedVersion: 3
        time: 1.1166667
        value: 0.49019608
        inSlope: 0
        outSlope: 0
        tangentMode: 136
        weightedMode: 0
        inWeight: 0.33333334
        outWeight: 0.33333334
      - serializedVersion: 3
        time: 2.2333333
        value: 1
        inSlope: 0
        outSlope: 0
        tangentMode: 136
        weightedMode: 0
        inWeight: 0.33333334
        outWeight: 0.33333334
      - serializedVersion: 3
        time: 3.35
        value: 0.49019608
        inSlope: 0
        outSlope: 0
        tangentMode: 136
        weightedMode: 0
        inWeight: 0.33333334
        outWeight: 0.33333334
      - serializedVersion: 3
        time: 4.45
        value: 1
        inSlope: 0
        outSlope: 0
        tangentMode: 136
        weightedMode: 0
        inWeight: 0.33333334
        outWeight: 0.33333334
      m_PreInfinity: 2
      m_PostInfinity: 2
      m_RotationOrder: 4
    attribute: m_Color.a
    path: 
    classID: 212
    script: {fileID: 0}
  m_EulerEditorCurves: []
  m_HasGenericRootTransform: 0
  m_HasMotionFloatCurves: 0
  m_Events: []
