%YAML 1.1
%TAG !u! tag:unity3d.com,2011:
--- !u!74 &7400000
AnimationClip:
  m_ObjectHideFlags: 0
  m_CorrespondingSourceObject: {fileID: 0}
  m_PrefabInstance: {fileID: 0}
  m_PrefabAsset: {fileID: 0}
  m_Name: SpellHit
  serializedVersion: 6
  m_Legacy: 0
  m_Compressed: 0
  m_UseHighQualityCurve: 1
  m_RotationCurves: []
  m_CompressedRotationCurves: []
  m_EulerCurves: []
  m_PositionCurves: []
  m_ScaleCurves:
  - curve:
      serializedVersion: 2
      m_Curve:
      - serializedVersion: 3
        time: 0
        value: {x: 0.5, y: 0.5, z: 1}
        inSlope: {x: 0, y: 0, z: 0}
        outSlope: {x: 0, y: 0, z: 0}
        tangentMode: 0
        weightedMode: 0
        inWeight: {x: 0.33333334, y: 0.33333334, z: 0.33333334}
        outWeight: {x: 0.33333334, y: 0.33333334, z: 0.33333334}
      - serializedVersion: 3
        time: 0.5
        value: {x: 1, y: 1, z: 1}
        inSlope: {x: 0, y: 0, z: 0}
        outSlope: {x: 0, y: 0, z: 0}
        tangentMode: 0
        weightedMode: 0
        inWeight: {x: 0.33333334, y: 0.33333334, z: 0.33333334}
        outWeight: {x: 0.33333334, y: 0.33333334, z: 0.33333334}
      m_PreInfinity: 2
      m_PostInfinity: 2
      m_RotationOrder: 4
    path: 
  m_FloatCurves: []
  m_PPtrCurves:
  - curve:
    - time: 0
      value: {fileID: 2836480152517601870, guid: c4ea45c32538c4c4ebc9e9c848f3b93f, type: 3}
    - time: 0.016666668
      value: {fileID: -3643894774315503928, guid: c4ea45c32538c4c4ebc9e9c848f3b93f, type: 3}
    - time: 0.033333335
      value: {fileID: -3483194083964862393, guid: c4ea45c32538c4c4ebc9e9c848f3b93f, type: 3}
    - time: 0.05
      value: {fileID: -2921409834776107662, guid: c4ea45c32538c4c4ebc9e9c848f3b93f, type: 3}
    - time: 0.06666667
      value: {fileID: -3409776947945446445, guid: c4ea45c32538c4c4ebc9e9c848f3b93f, type: 3}
    - time: 0.083333336
      value: {fileID: 6062167822087531616, guid: c4ea45c32538c4c4ebc9e9c848f3b93f, type: 3}
    - time: 0.1
      value: {fileID: 7333324851912577740, guid: c4ea45c32538c4c4ebc9e9c848f3b93f, type: 3}
    - time: 0.11666667
      value: {fileID: -611563102071076472, guid: c4ea45c32538c4c4ebc9e9c848f3b93f, type: 3}
    - time: 0.13333334
      value: {fileID: 1341293002823793137, guid: c4ea45c32538c4c4ebc9e9c848f3b93f, type: 3}
    - time: 0.15
      value: {fileID: 3687885857908724931, guid: c4ea45c32538c4c4ebc9e9c848f3b93f, type: 3}
    - time: 0.16666667
      value: {fileID: -1298083768606061157, guid: c4ea45c32538c4c4ebc9e9c848f3b93f, type: 3}
    - time: 0.18333334
      value: {fileID: 8093268784921398680, guid: c4ea45c32538c4c4ebc9e9c848f3b93f, type: 3}
    - time: 0.2
      value: {fileID: -1317489849786439739, guid: c4ea45c32538c4c4ebc9e9c848f3b93f, type: 3}
    - time: 0.21666667
      value: {fileID: 3079114349046288548, guid: c4ea45c32538c4c4ebc9e9c848f3b93f, type: 3}
    - time: 0.23333333
      value: {fileID: -1850302710861422086, guid: c4ea45c32538c4c4ebc9e9c848f3b93f, type: 3}
    - time: 0.25
      value: {fileID: -4849972725203124513, guid: c4ea45c32538c4c4ebc9e9c848f3b93f, type: 3}
    - time: 0.26666668
      value: {fileID: 1706611276178068450, guid: c4ea45c32538c4c4ebc9e9c848f3b93f, type: 3}
    - time: 0.28333333
      value: {fileID: -1475377461793238234, guid: c4ea45c32538c4c4ebc9e9c848f3b93f, type: 3}
    - time: 0.3
      value: {fileID: -393138869551162100, guid: c4ea45c32538c4c4ebc9e9c848f3b93f, type: 3}
    - time: 0.31666666
      value: {fileID: -4922179752583707712, guid: c4ea45c32538c4c4ebc9e9c848f3b93f, type: 3}
    - time: 0.33333334
      value: {fileID: -6953183448195280384, guid: c4ea45c32538c4c4ebc9e9c848f3b93f, type: 3}
    - time: 0.35
      value: {fileID: 8947847874957413759, guid: c4ea45c32538c4c4ebc9e9c848f3b93f, type: 3}
    - time: 0.36666667
      value: {fileID: 5074502612816047927, guid: c4ea45c32538c4c4ebc9e9c848f3b93f, type: 3}
    - time: 0.38333333
      value: {fileID: -5408112245498630866, guid: c4ea45c32538c4c4ebc9e9c848f3b93f, type: 3}
    - time: 0.4
      value: {fileID: 8913784772754894360, guid: c4ea45c32538c4c4ebc9e9c848f3b93f, type: 3}
    - time: 0.41666666
      value: {fileID: -1723857503700920250, guid: c4ea45c32538c4c4ebc9e9c848f3b93f, type: 3}
    - time: 0.43333334
      value: {fileID: -2253619936136452454, guid: c4ea45c32538c4c4ebc9e9c848f3b93f, type: 3}
    - time: 0.45
      value: {fileID: -2117305632561935543, guid: c4ea45c32538c4c4ebc9e9c848f3b93f, type: 3}
    - time: 0.46666667
      value: {fileID: -3188664968580161508, guid: c4ea45c32538c4c4ebc9e9c848f3b93f, type: 3}
    - time: 0.48333332
      value: {fileID: 4274341151618065986, guid: c4ea45c32538c4c4ebc9e9c848f3b93f, type: 3}
    - time: 0.5
      value: {fileID: 3541805730554344286, guid: c4ea45c32538c4c4ebc9e9c848f3b93f, type: 3}
    - time: 0.51666665
      value: {fileID: 539039139303491577, guid: c4ea45c32538c4c4ebc9e9c848f3b93f, type: 3}
    - time: 0.53333336
      value: {fileID: -2275492986154082127, guid: c4ea45c32538c4c4ebc9e9c848f3b93f, type: 3}
    - time: 0.55
      value: {fileID: 4413078587445940002, guid: c4ea45c32538c4c4ebc9e9c848f3b93f, type: 3}
    - time: 0.56666666
      value: {fileID: 8381363426368685138, guid: c4ea45c32538c4c4ebc9e9c848f3b93f, type: 3}
    - time: 0.5833333
      value: {fileID: 2607039851422170009, guid: c4ea45c32538c4c4ebc9e9c848f3b93f, type: 3}
    - time: 0.6
      value: {fileID: -3169163829702069654, guid: c4ea45c32538c4c4ebc9e9c848f3b93f, type: 3}
    - time: 0.6166667
      value: {fileID: 3478009219320006327, guid: c4ea45c32538c4c4ebc9e9c848f3b93f, type: 3}
    - time: 0.6333333
      value: {fileID: 2551438002453083617, guid: c4ea45c32538c4c4ebc9e9c848f3b93f, type: 3}
    - time: 0.65
      value: {fileID: -3621934530570389501, guid: c4ea45c32538c4c4ebc9e9c848f3b93f, type: 3}
    - time: 0.6666667
      value: {fileID: 3621277454725041769, guid: c4ea45c32538c4c4ebc9e9c848f3b93f, type: 3}
    - time: 0.68333334
      value: {fileID: -7239085734652670759, guid: c4ea45c32538c4c4ebc9e9c848f3b93f, type: 3}
    - time: 0.7
      value: {fileID: -485456920584524998, guid: c4ea45c32538c4c4ebc9e9c848f3b93f, type: 3}
    - time: 0.71666664
      value: {fileID: 2534959238051979778, guid: c4ea45c32538c4c4ebc9e9c848f3b93f, type: 3}
    - time: 0.73333335
      value: {fileID: 1532483578173053734, guid: c4ea45c32538c4c4ebc9e9c848f3b93f, type: 3}
    - time: 0.75
      value: {fileID: 2979971801901197042, guid: c4ea45c32538c4c4ebc9e9c848f3b93f, type: 3}
    - time: 0.76666665
      value: {fileID: 1140225233200406874, guid: c4ea45c32538c4c4ebc9e9c848f3b93f, type: 3}
    - time: 0.78333336
      value: {fileID: -698643475979276941, guid: c4ea45c32538c4c4ebc9e9c848f3b93f, type: 3}
    - time: 0.8
      value: {fileID: -2321760924485765682, guid: c4ea45c32538c4c4ebc9e9c848f3b93f, type: 3}
    - time: 0.81666666
      value: {fileID: -3519999015363276306, guid: c4ea45c32538c4c4ebc9e9c848f3b93f, type: 3}
    - time: 0.8333333
      value: {fileID: -1731856574154233122, guid: c4ea45c32538c4c4ebc9e9c848f3b93f, type: 3}
    - time: 0.85
      value: {fileID: 3262611013850237078, guid: c4ea45c32538c4c4ebc9e9c848f3b93f, type: 3}
    - time: 0.8666667
      value: {fileID: 5527880444272381090, guid: c4ea45c32538c4c4ebc9e9c848f3b93f, type: 3}
    - time: 0.8833333
      value: {fileID: -3210120753309757107, guid: c4ea45c32538c4c4ebc9e9c848f3b93f, type: 3}
    - time: 0.9
      value: {fileID: 7715401647479375621, guid: c4ea45c32538c4c4ebc9e9c848f3b93f, type: 3}
    - time: 0.9166667
      value: {fileID: -1170386818519480535, guid: c4ea45c32538c4c4ebc9e9c848f3b93f, type: 3}
    - time: 0.93333334
      value: {fileID: 0}
    - time: 0.95
      value: {fileID: 0}
    - time: 0.96666664
      value: {fileID: 0}
    - time: 0.98333335
      value: {fileID: 0}
    - time: 1
      value: {fileID: 0}
    attribute: m_Sprite
    path: 
    classID: 212
    script: {fileID: 0}
  m_SampleRate: 60
  m_WrapMode: 0
  m_Bounds:
    m_Center: {x: 0, y: 0, z: 0}
    m_Extent: {x: 0, y: 0, z: 0}
  m_ClipBindingConstant:
    genericBindings:
    - serializedVersion: 2
      path: 0
      attribute: 3
      script: {fileID: 0}
      typeID: 4
      customType: 0
      isPPtrCurve: 0
    - serializedVersion: 2
      path: 0
      attribute: 0
      script: {fileID: 0}
      typeID: 212
      customType: 23
      isPPtrCurve: 1
    pptrCurveMapping:
    - {fileID: 2836480152517601870, guid: c4ea45c32538c4c4ebc9e9c848f3b93f, type: 3}
    - {fileID: -3643894774315503928, guid: c4ea45c32538c4c4ebc9e9c848f3b93f, type: 3}
    - {fileID: -3483194083964862393, guid: c4ea45c32538c4c4ebc9e9c848f3b93f, type: 3}
    - {fileID: -2921409834776107662, guid: c4ea45c32538c4c4ebc9e9c848f3b93f, type: 3}
    - {fileID: -3409776947945446445, guid: c4ea45c32538c4c4ebc9e9c848f3b93f, type: 3}
    - {fileID: 6062167822087531616, guid: c4ea45c32538c4c4ebc9e9c848f3b93f, type: 3}
    - {fileID: 7333324851912577740, guid: c4ea45c32538c4c4ebc9e9c848f3b93f, type: 3}
    - {fileID: -611563102071076472, guid: c4ea45c32538c4c4ebc9e9c848f3b93f, type: 3}
    - {fileID: 1341293002823793137, guid: c4ea45c32538c4c4ebc9e9c848f3b93f, type: 3}
    - {fileID: 3687885857908724931, guid: c4ea45c32538c4c4ebc9e9c848f3b93f, type: 3}
    - {fileID: -1298083768606061157, guid: c4ea45c32538c4c4ebc9e9c848f3b93f, type: 3}
    - {fileID: 8093268784921398680, guid: c4ea45c32538c4c4ebc9e9c848f3b93f, type: 3}
    - {fileID: -1317489849786439739, guid: c4ea45c32538c4c4ebc9e9c848f3b93f, type: 3}
    - {fileID: 3079114349046288548, guid: c4ea45c32538c4c4ebc9e9c848f3b93f, type: 3}
    - {fileID: -1850302710861422086, guid: c4ea45c32538c4c4ebc9e9c848f3b93f, type: 3}
    - {fileID: -4849972725203124513, guid: c4ea45c32538c4c4ebc9e9c848f3b93f, type: 3}
    - {fileID: 1706611276178068450, guid: c4ea45c32538c4c4ebc9e9c848f3b93f, type: 3}
    - {fileID: -1475377461793238234, guid: c4ea45c32538c4c4ebc9e9c848f3b93f, type: 3}
    - {fileID: -393138869551162100, guid: c4ea45c32538c4c4ebc9e9c848f3b93f, type: 3}
    - {fileID: -4922179752583707712, guid: c4ea45c32538c4c4ebc9e9c848f3b93f, type: 3}
    - {fileID: -6953183448195280384, guid: c4ea45c32538c4c4ebc9e9c848f3b93f, type: 3}
    - {fileID: 8947847874957413759, guid: c4ea45c32538c4c4ebc9e9c848f3b93f, type: 3}
    - {fileID: 5074502612816047927, guid: c4ea45c32538c4c4ebc9e9c848f3b93f, type: 3}
    - {fileID: -5408112245498630866, guid: c4ea45c32538c4c4ebc9e9c848f3b93f, type: 3}
    - {fileID: 8913784772754894360, guid: c4ea45c32538c4c4ebc9e9c848f3b93f, type: 3}
    - {fileID: -1723857503700920250, guid: c4ea45c32538c4c4ebc9e9c848f3b93f, type: 3}
    - {fileID: -2253619936136452454, guid: c4ea45c32538c4c4ebc9e9c848f3b93f, type: 3}
    - {fileID: -2117305632561935543, guid: c4ea45c32538c4c4ebc9e9c848f3b93f, type: 3}
    - {fileID: -3188664968580161508, guid: c4ea45c32538c4c4ebc9e9c848f3b93f, type: 3}
    - {fileID: 4274341151618065986, guid: c4ea45c32538c4c4ebc9e9c848f3b93f, type: 3}
    - {fileID: 3541805730554344286, guid: c4ea45c32538c4c4ebc9e9c848f3b93f, type: 3}
    - {fileID: 539039139303491577, guid: c4ea45c32538c4c4ebc9e9c848f3b93f, type: 3}
    - {fileID: -2275492986154082127, guid: c4ea45c32538c4c4ebc9e9c848f3b93f, type: 3}
    - {fileID: 4413078587445940002, guid: c4ea45c32538c4c4ebc9e9c848f3b93f, type: 3}
    - {fileID: 8381363426368685138, guid: c4ea45c32538c4c4ebc9e9c848f3b93f, type: 3}
    - {fileID: 2607039851422170009, guid: c4ea45c32538c4c4ebc9e9c848f3b93f, type: 3}
    - {fileID: -3169163829702069654, guid: c4ea45c32538c4c4ebc9e9c848f3b93f, type: 3}
    - {fileID: 3478009219320006327, guid: c4ea45c32538c4c4ebc9e9c848f3b93f, type: 3}
    - {fileID: 2551438002453083617, guid: c4ea45c32538c4c4ebc9e9c848f3b93f, type: 3}
    - {fileID: -3621934530570389501, guid: c4ea45c32538c4c4ebc9e9c848f3b93f, type: 3}
    - {fileID: 3621277454725041769, guid: c4ea45c32538c4c4ebc9e9c848f3b93f, type: 3}
    - {fileID: -7239085734652670759, guid: c4ea45c32538c4c4ebc9e9c848f3b93f, type: 3}
    - {fileID: -485456920584524998, guid: c4ea45c32538c4c4ebc9e9c848f3b93f, type: 3}
    - {fileID: 2534959238051979778, guid: c4ea45c32538c4c4ebc9e9c848f3b93f, type: 3}
    - {fileID: 1532483578173053734, guid: c4ea45c32538c4c4ebc9e9c848f3b93f, type: 3}
    - {fileID: 2979971801901197042, guid: c4ea45c32538c4c4ebc9e9c848f3b93f, type: 3}
    - {fileID: 1140225233200406874, guid: c4ea45c32538c4c4ebc9e9c848f3b93f, type: 3}
    - {fileID: -698643475979276941, guid: c4ea45c32538c4c4ebc9e9c848f3b93f, type: 3}
    - {fileID: -2321760924485765682, guid: c4ea45c32538c4c4ebc9e9c848f3b93f, type: 3}
    - {fileID: -3519999015363276306, guid: c4ea45c32538c4c4ebc9e9c848f3b93f, type: 3}
    - {fileID: -1731856574154233122, guid: c4ea45c32538c4c4ebc9e9c848f3b93f, type: 3}
    - {fileID: 3262611013850237078, guid: c4ea45c32538c4c4ebc9e9c848f3b93f, type: 3}
    - {fileID: 5527880444272381090, guid: c4ea45c32538c4c4ebc9e9c848f3b93f, type: 3}
    - {fileID: -3210120753309757107, guid: c4ea45c32538c4c4ebc9e9c848f3b93f, type: 3}
    - {fileID: 7715401647479375621, guid: c4ea45c32538c4c4ebc9e9c848f3b93f, type: 3}
    - {fileID: -1170386818519480535, guid: c4ea45c32538c4c4ebc9e9c848f3b93f, type: 3}
    - {fileID: 0}
    - {fileID: 0}
    - {fileID: 0}
    - {fileID: 0}
    - {fileID: 0}
  m_AnimationClipSettings:
    serializedVersion: 2
    m_AdditiveReferencePoseClip: {fileID: 0}
    m_AdditiveReferencePoseTime: 0
    m_StartTime: 0
    m_StopTime: 1.0166667
    m_OrientationOffsetY: 0
    m_Level: 0
    m_CycleOffset: 0
    m_HasAdditiveReferencePose: 0
    m_LoopTime: 0
    m_LoopBlend: 0
    m_LoopBlendOrientation: 0
    m_LoopBlendPositionY: 0
    m_LoopBlendPositionXZ: 0
    m_KeepOriginalOrientation: 0
    m_KeepOriginalPositionY: 1
    m_KeepOriginalPositionXZ: 0
    m_HeightFromFeet: 0
    m_Mirror: 0
  m_EditorCurves:
  - curve:
      serializedVersion: 2
      m_Curve:
      - serializedVersion: 3
        time: 0
        value: 0.5
        inSlope: 0
        outSlope: 0
        tangentMode: 136
        weightedMode: 0
        inWeight: 0.33333334
        outWeight: 0.33333334
      - serializedVersion: 3
        time: 0.5
        value: 1
        inSlope: 0
        outSlope: 0
        tangentMode: 136
        weightedMode: 0
        inWeight: 0.33333334
        outWeight: 0.33333334
      m_PreInfinity: 2
      m_PostInfinity: 2
      m_RotationOrder: 4
    attribute: m_LocalScale.x
    path: 
    classID: 4
    script: {fileID: 0}
  - curve:
      serializedVersion: 2
      m_Curve:
      - serializedVersion: 3
        time: 0
        value: 0.5
        inSlope: 0
        outSlope: 0
        tangentMode: 136
        weightedMode: 0
        inWeight: 0.33333334
        outWeight: 0.33333334
      - serializedVersion: 3
        time: 0.5
        value: 1
        inSlope: 0
        outSlope: 0
        tangentMode: 136
        weightedMode: 0
        inWeight: 0.33333334
        outWeight: 0.33333334
      m_PreInfinity: 2
      m_PostInfinity: 2
      m_RotationOrder: 4
    attribute: m_LocalScale.y
    path: 
    classID: 4
    script: {fileID: 0}
  - curve:
      serializedVersion: 2
      m_Curve:
      - serializedVersion: 3
        time: 0
        value: 1
        inSlope: 0
        outSlope: 0
        tangentMode: 136
        weightedMode: 0
        inWeight: 0.33333334
        outWeight: 0.33333334
      - serializedVersion: 3
        time: 0.5
        value: 1
        inSlope: 0
        outSlope: 0
        tangentMode: 136
        weightedMode: 0
        inWeight: 0.33333334
        outWeight: 0.33333334
      m_PreInfinity: 2
      m_PostInfinity: 2
      m_RotationOrder: 4
    attribute: m_LocalScale.z
    path: 
    classID: 4
    script: {fileID: 0}
  m_EulerEditorCurves: []
  m_HasGenericRootTransform: 0
  m_HasMotionFloatCurves: 0
  m_Events:
  - time: 1
    functionName: DestroyProjectile
    data: 
    objectReferenceParameter: {fileID: 0}
    floatParameter: 0
    intParameter: 0
    messageOptions: 0
