%YAML 1.1
%TAG !u! tag:unity3d.com,2011:
--- !u!74 &7400000
AnimationClip:
  m_ObjectHideFlags: 0
  m_CorrespondingSourceObject: {fileID: 0}
  m_PrefabInstance: {fileID: 0}
  m_PrefabAsset: {fileID: 0}
  m_Name: SpellLaunch
  serializedVersion: 6
  m_Legacy: 0
  m_Compressed: 0
  m_UseHighQualityCurve: 1
  m_RotationCurves: []
  m_CompressedRotationCurves: []
  m_EulerCurves: []
  m_PositionCurves: []
  m_ScaleCurves: []
  m_FloatCurves: []
  m_PPtrCurves:
  - curve:
    - time: 0
      value: {fileID: 4803702383176954531, guid: 23def13f4bdc5b84a8320bc2bca5520d, type: 3}
    - time: 0.083333336
      value: {fileID: 6820912076193251547, guid: 23def13f4bdc5b84a8320bc2bca5520d, type: 3}
    - time: 0.16666667
      value: {fileID: 6859782132895066820, guid: 23def13f4bdc5b84a8320bc2bca5520d, type: 3}
    - time: 0.25
      value: {fileID: -746115806085684450, guid: 23def13f4bdc5b84a8320bc2bca5520d, type: 3}
    - time: 0.33333334
      value: {fileID: 1424115193272190592, guid: 23def13f4bdc5b84a8320bc2bca5520d, type: 3}
    - time: 0.41666666
      value: {fileID: -486936357414300588, guid: 23def13f4bdc5b84a8320bc2bca5520d, type: 3}
    - time: 0.5
      value: {fileID: -5810731248693748521, guid: 23def13f4bdc5b84a8320bc2bca5520d, type: 3}
    - time: 0.5833333
      value: {fileID: -2094541304790638283, guid: 23def13f4bdc5b84a8320bc2bca5520d, type: 3}
    - time: 0.6666667
      value: {fileID: -5169754518563628028, guid: 23def13f4bdc5b84a8320bc2bca5520d, type: 3}
    - time: 0.75
      value: {fileID: 3162106324920298090, guid: 23def13f4bdc5b84a8320bc2bca5520d, type: 3}
    - time: 0.8333333
      value: {fileID: -4239192240988666134, guid: 23def13f4bdc5b84a8320bc2bca5520d, type: 3}
    - time: 0.9166667
      value: {fileID: 7581563179222848216, guid: 23def13f4bdc5b84a8320bc2bca5520d, type: 3}
    - time: 1
      value: {fileID: 1087115586850774553, guid: 23def13f4bdc5b84a8320bc2bca5520d, type: 3}
    - time: 1.0833334
      value: {fileID: -8102092817101925456, guid: 23def13f4bdc5b84a8320bc2bca5520d, type: 3}
    - time: 1.1666666
      value: {fileID: 5879136455014209511, guid: 23def13f4bdc5b84a8320bc2bca5520d, type: 3}
    - time: 1.25
      value: {fileID: -6626720293849078725, guid: 23def13f4bdc5b84a8320bc2bca5520d, type: 3}
    attribute: m_Sprite
    path: 
    classID: 212
    script: {fileID: 0}
  m_SampleRate: 60
  m_WrapMode: 0
  m_Bounds:
    m_Center: {x: 0, y: 0, z: 0}
    m_Extent: {x: 0, y: 0, z: 0}
  m_ClipBindingConstant:
    genericBindings:
    - serializedVersion: 2
      path: 0
      attribute: 0
      script: {fileID: 0}
      typeID: 212
      customType: 23
      isPPtrCurve: 1
    pptrCurveMapping:
    - {fileID: 4803702383176954531, guid: 23def13f4bdc5b84a8320bc2bca5520d, type: 3}
    - {fileID: 6820912076193251547, guid: 23def13f4bdc5b84a8320bc2bca5520d, type: 3}
    - {fileID: 6859782132895066820, guid: 23def13f4bdc5b84a8320bc2bca5520d, type: 3}
    - {fileID: -746115806085684450, guid: 23def13f4bdc5b84a8320bc2bca5520d, type: 3}
    - {fileID: 1424115193272190592, guid: 23def13f4bdc5b84a8320bc2bca5520d, type: 3}
    - {fileID: -486936357414300588, guid: 23def13f4bdc5b84a8320bc2bca5520d, type: 3}
    - {fileID: -5810731248693748521, guid: 23def13f4bdc5b84a8320bc2bca5520d, type: 3}
    - {fileID: -2094541304790638283, guid: 23def13f4bdc5b84a8320bc2bca5520d, type: 3}
    - {fileID: -5169754518563628028, guid: 23def13f4bdc5b84a8320bc2bca5520d, type: 3}
    - {fileID: 3162106324920298090, guid: 23def13f4bdc5b84a8320bc2bca5520d, type: 3}
    - {fileID: -4239192240988666134, guid: 23def13f4bdc5b84a8320bc2bca5520d, type: 3}
    - {fileID: 7581563179222848216, guid: 23def13f4bdc5b84a8320bc2bca5520d, type: 3}
    - {fileID: 1087115586850774553, guid: 23def13f4bdc5b84a8320bc2bca5520d, type: 3}
    - {fileID: -8102092817101925456, guid: 23def13f4bdc5b84a8320bc2bca5520d, type: 3}
    - {fileID: 5879136455014209511, guid: 23def13f4bdc5b84a8320bc2bca5520d, type: 3}
    - {fileID: -6626720293849078725, guid: 23def13f4bdc5b84a8320bc2bca5520d, type: 3}
  m_AnimationClipSettings:
    serializedVersion: 2
    m_AdditiveReferencePoseClip: {fileID: 0}
    m_AdditiveReferencePoseTime: 0
    m_StartTime: 0
    m_StopTime: 1.2666667
    m_OrientationOffsetY: 0
    m_Level: 0
    m_CycleOffset: 0
    m_HasAdditiveReferencePose: 0
    m_LoopTime: 0
    m_LoopBlend: 0
    m_LoopBlendOrientation: 0
    m_LoopBlendPositionY: 0
    m_LoopBlendPositionXZ: 0
    m_KeepOriginalOrientation: 0
    m_KeepOriginalPositionY: 1
    m_KeepOriginalPositionXZ: 0
    m_HeightFromFeet: 0
    m_Mirror: 0
  m_EditorCurves: []
  m_EulerEditorCurves: []
  m_HasGenericRootTransform: 0
  m_HasMotionFloatCurves: 0
  m_Events: []
