%YAML 1.1
%TAG !u! tag:unity3d.com,2011:
--- !u!74 &7400000
AnimationClip:
  m_ObjectHideFlags: 0
  m_CorrespondingSourceObject: {fileID: 0}
  m_PrefabInstance: {fileID: 0}
  m_PrefabAsset: {fileID: 0}
  m_Name: Byakhee
  serializedVersion: 6
  m_Legacy: 0
  m_Compressed: 0
  m_UseHighQualityCurve: 1
  m_RotationCurves: []
  m_CompressedRotationCurves: []
  m_EulerCurves: []
  m_PositionCurves: []
  m_ScaleCurves: []
  m_FloatCurves: []
  m_PPtrCurves:
  - curve:
    - time: 0
      value: {fileID: 392440653885586062, guid: bef354d89e8a70245b6a76da6ec8c17a, type: 3}
    - time: 0.016666668
      value: {fileID: 2439028592552429381, guid: bef354d89e8a70245b6a76da6ec8c17a, type: 3}
    - time: 0.033333335
      value: {fileID: -8262202451397048897, guid: bef354d89e8a70245b6a76da6ec8c17a, type: 3}
    - time: 0.05
      value: {fileID: 1247099293815378775, guid: bef354d89e8a70245b6a76da6ec8c17a, type: 3}
    - time: 0.06666667
      value: {fileID: 705365378611137173, guid: bef354d89e8a70245b6a76da6ec8c17a, type: 3}
    - time: 0.083333336
      value: {fileID: -3100248359042957690, guid: bef354d89e8a70245b6a76da6ec8c17a, type: 3}
    - time: 0.1
      value: {fileID: 155138762789158423, guid: bef354d89e8a70245b6a76da6ec8c17a, type: 3}
    - time: 0.11666667
      value: {fileID: 8116300140365268776, guid: bef354d89e8a70245b6a76da6ec8c17a, type: 3}
    - time: 0.13333334
      value: {fileID: 9191902997259233713, guid: bef354d89e8a70245b6a76da6ec8c17a, type: 3}
    - time: 0.15
      value: {fileID: 5744049541671925546, guid: bef354d89e8a70245b6a76da6ec8c17a, type: 3}
    - time: 0.16666667
      value: {fileID: -5407130692244736810, guid: bef354d89e8a70245b6a76da6ec8c17a, type: 3}
    - time: 0.18333334
      value: {fileID: 1391641720400809512, guid: bef354d89e8a70245b6a76da6ec8c17a, type: 3}
    - time: 0.2
      value: {fileID: 7773681717150808143, guid: bef354d89e8a70245b6a76da6ec8c17a, type: 3}
    - time: 0.21666667
      value: {fileID: -2179071523753137179, guid: bef354d89e8a70245b6a76da6ec8c17a, type: 3}
    - time: 0.23333333
      value: {fileID: -1248240729531583242, guid: bef354d89e8a70245b6a76da6ec8c17a, type: 3}
    - time: 0.25
      value: {fileID: 719239900484368984, guid: bef354d89e8a70245b6a76da6ec8c17a, type: 3}
    - time: 0.26666668
      value: {fileID: -5926864708274528190, guid: bef354d89e8a70245b6a76da6ec8c17a, type: 3}
    - time: 0.28333333
      value: {fileID: 2587653641650656884, guid: bef354d89e8a70245b6a76da6ec8c17a, type: 3}
    - time: 0.3
      value: {fileID: -1851446047891278578, guid: bef354d89e8a70245b6a76da6ec8c17a, type: 3}
    - time: 0.31666666
      value: {fileID: 2122576393123008781, guid: bef354d89e8a70245b6a76da6ec8c17a, type: 3}
    - time: 0.33333334
      value: {fileID: -2312751753494642659, guid: bef354d89e8a70245b6a76da6ec8c17a, type: 3}
    - time: 0.35
      value: {fileID: 8889709607277571070, guid: bef354d89e8a70245b6a76da6ec8c17a, type: 3}
    - time: 0.36666667
      value: {fileID: -843257263258222560, guid: bef354d89e8a70245b6a76da6ec8c17a, type: 3}
    - time: 0.38333333
      value: {fileID: 1308470683511894688, guid: bef354d89e8a70245b6a76da6ec8c17a, type: 3}
    - time: 0.4
      value: {fileID: -7359427337271763810, guid: bef354d89e8a70245b6a76da6ec8c17a, type: 3}
    - time: 0.41666666
      value: {fileID: -6128279967908273107, guid: bef354d89e8a70245b6a76da6ec8c17a, type: 3}
    - time: 0.43333334
      value: {fileID: 753784713375499254, guid: bef354d89e8a70245b6a76da6ec8c17a, type: 3}
    - time: 0.45
      value: {fileID: 2508649899287745930, guid: bef354d89e8a70245b6a76da6ec8c17a, type: 3}
    - time: 0.46666667
      value: {fileID: -8967620899053213792, guid: bef354d89e8a70245b6a76da6ec8c17a, type: 3}
    - time: 0.48333332
      value: {fileID: -8412147211021982867, guid: bef354d89e8a70245b6a76da6ec8c17a, type: 3}
    - time: 0.5
      value: {fileID: 2171563751477651809, guid: bef354d89e8a70245b6a76da6ec8c17a, type: 3}
    - time: 0.51666665
      value: {fileID: -6544121383397446346, guid: bef354d89e8a70245b6a76da6ec8c17a, type: 3}
    - time: 0.53333336
      value: {fileID: 7927049845889244546, guid: bef354d89e8a70245b6a76da6ec8c17a, type: 3}
    - time: 0.55
      value: {fileID: 967569190696550566, guid: bef354d89e8a70245b6a76da6ec8c17a, type: 3}
    - time: 0.56666666
      value: {fileID: -3193573824246684724, guid: bef354d89e8a70245b6a76da6ec8c17a, type: 3}
    - time: 0.5833333
      value: {fileID: -2048052961636435404, guid: bef354d89e8a70245b6a76da6ec8c17a, type: 3}
    - time: 0.6
      value: {fileID: -1837573712518428145, guid: bef354d89e8a70245b6a76da6ec8c17a, type: 3}
    - time: 0.6166667
      value: {fileID: 998149561987332280, guid: bef354d89e8a70245b6a76da6ec8c17a, type: 3}
    - time: 0.6333333
      value: {fileID: 4197342741523621281, guid: bef354d89e8a70245b6a76da6ec8c17a, type: 3}
    - time: 0.65
      value: {fileID: 1957215198935972708, guid: bef354d89e8a70245b6a76da6ec8c17a, type: 3}
    - time: 0.6666667
      value: {fileID: 7557370691144824855, guid: bef354d89e8a70245b6a76da6ec8c17a, type: 3}
    - time: 0.68333334
      value: {fileID: -5745023512523794978, guid: bef354d89e8a70245b6a76da6ec8c17a, type: 3}
    - time: 0.7
      value: {fileID: -9020177900101601968, guid: bef354d89e8a70245b6a76da6ec8c17a, type: 3}
    - time: 0.71666664
      value: {fileID: 8924969334272155799, guid: bef354d89e8a70245b6a76da6ec8c17a, type: 3}
    - time: 0.73333335
      value: {fileID: 1138994967839257966, guid: bef354d89e8a70245b6a76da6ec8c17a, type: 3}
    - time: 0.75
      value: {fileID: 1922287964485276469, guid: bef354d89e8a70245b6a76da6ec8c17a, type: 3}
    attribute: m_Sprite
    path: 
    classID: 114
    script: {fileID: 11500000, guid: fe87c0e1cc204ed48ad3b37840f39efc, type: 3}
  m_SampleRate: 60
  m_WrapMode: 0
  m_Bounds:
    m_Center: {x: 0, y: 0, z: 0}
    m_Extent: {x: 0, y: 0, z: 0}
  m_ClipBindingConstant:
    genericBindings:
    - serializedVersion: 2
      path: 0
      attribute: 2015549526
      script: {fileID: 11500000, guid: fe87c0e1cc204ed48ad3b37840f39efc, type: 3}
      typeID: 114
      customType: 0
      isPPtrCurve: 1
    pptrCurveMapping:
    - {fileID: 392440653885586062, guid: bef354d89e8a70245b6a76da6ec8c17a, type: 3}
    - {fileID: 2439028592552429381, guid: bef354d89e8a70245b6a76da6ec8c17a, type: 3}
    - {fileID: -8262202451397048897, guid: bef354d89e8a70245b6a76da6ec8c17a, type: 3}
    - {fileID: 1247099293815378775, guid: bef354d89e8a70245b6a76da6ec8c17a, type: 3}
    - {fileID: 705365378611137173, guid: bef354d89e8a70245b6a76da6ec8c17a, type: 3}
    - {fileID: -3100248359042957690, guid: bef354d89e8a70245b6a76da6ec8c17a, type: 3}
    - {fileID: 155138762789158423, guid: bef354d89e8a70245b6a76da6ec8c17a, type: 3}
    - {fileID: 8116300140365268776, guid: bef354d89e8a70245b6a76da6ec8c17a, type: 3}
    - {fileID: 9191902997259233713, guid: bef354d89e8a70245b6a76da6ec8c17a, type: 3}
    - {fileID: 5744049541671925546, guid: bef354d89e8a70245b6a76da6ec8c17a, type: 3}
    - {fileID: -5407130692244736810, guid: bef354d89e8a70245b6a76da6ec8c17a, type: 3}
    - {fileID: 1391641720400809512, guid: bef354d89e8a70245b6a76da6ec8c17a, type: 3}
    - {fileID: 7773681717150808143, guid: bef354d89e8a70245b6a76da6ec8c17a, type: 3}
    - {fileID: -2179071523753137179, guid: bef354d89e8a70245b6a76da6ec8c17a, type: 3}
    - {fileID: -1248240729531583242, guid: bef354d89e8a70245b6a76da6ec8c17a, type: 3}
    - {fileID: 719239900484368984, guid: bef354d89e8a70245b6a76da6ec8c17a, type: 3}
    - {fileID: -5926864708274528190, guid: bef354d89e8a70245b6a76da6ec8c17a, type: 3}
    - {fileID: 2587653641650656884, guid: bef354d89e8a70245b6a76da6ec8c17a, type: 3}
    - {fileID: -1851446047891278578, guid: bef354d89e8a70245b6a76da6ec8c17a, type: 3}
    - {fileID: 2122576393123008781, guid: bef354d89e8a70245b6a76da6ec8c17a, type: 3}
    - {fileID: -2312751753494642659, guid: bef354d89e8a70245b6a76da6ec8c17a, type: 3}
    - {fileID: 8889709607277571070, guid: bef354d89e8a70245b6a76da6ec8c17a, type: 3}
    - {fileID: -843257263258222560, guid: bef354d89e8a70245b6a76da6ec8c17a, type: 3}
    - {fileID: 1308470683511894688, guid: bef354d89e8a70245b6a76da6ec8c17a, type: 3}
    - {fileID: -7359427337271763810, guid: bef354d89e8a70245b6a76da6ec8c17a, type: 3}
    - {fileID: -6128279967908273107, guid: bef354d89e8a70245b6a76da6ec8c17a, type: 3}
    - {fileID: 753784713375499254, guid: bef354d89e8a70245b6a76da6ec8c17a, type: 3}
    - {fileID: 2508649899287745930, guid: bef354d89e8a70245b6a76da6ec8c17a, type: 3}
    - {fileID: -8967620899053213792, guid: bef354d89e8a70245b6a76da6ec8c17a, type: 3}
    - {fileID: -8412147211021982867, guid: bef354d89e8a70245b6a76da6ec8c17a, type: 3}
    - {fileID: 2171563751477651809, guid: bef354d89e8a70245b6a76da6ec8c17a, type: 3}
    - {fileID: -6544121383397446346, guid: bef354d89e8a70245b6a76da6ec8c17a, type: 3}
    - {fileID: 7927049845889244546, guid: bef354d89e8a70245b6a76da6ec8c17a, type: 3}
    - {fileID: 967569190696550566, guid: bef354d89e8a70245b6a76da6ec8c17a, type: 3}
    - {fileID: -3193573824246684724, guid: bef354d89e8a70245b6a76da6ec8c17a, type: 3}
    - {fileID: -2048052961636435404, guid: bef354d89e8a70245b6a76da6ec8c17a, type: 3}
    - {fileID: -1837573712518428145, guid: bef354d89e8a70245b6a76da6ec8c17a, type: 3}
    - {fileID: 998149561987332280, guid: bef354d89e8a70245b6a76da6ec8c17a, type: 3}
    - {fileID: 4197342741523621281, guid: bef354d89e8a70245b6a76da6ec8c17a, type: 3}
    - {fileID: 1957215198935972708, guid: bef354d89e8a70245b6a76da6ec8c17a, type: 3}
    - {fileID: 7557370691144824855, guid: bef354d89e8a70245b6a76da6ec8c17a, type: 3}
    - {fileID: -5745023512523794978, guid: bef354d89e8a70245b6a76da6ec8c17a, type: 3}
    - {fileID: -9020177900101601968, guid: bef354d89e8a70245b6a76da6ec8c17a, type: 3}
    - {fileID: 8924969334272155799, guid: bef354d89e8a70245b6a76da6ec8c17a, type: 3}
    - {fileID: 1138994967839257966, guid: bef354d89e8a70245b6a76da6ec8c17a, type: 3}
    - {fileID: 1922287964485276469, guid: bef354d89e8a70245b6a76da6ec8c17a, type: 3}
  m_AnimationClipSettings:
    serializedVersion: 2
    m_AdditiveReferencePoseClip: {fileID: 0}
    m_AdditiveReferencePoseTime: 0
    m_StartTime: 0
    m_StopTime: 0.76666665
    m_OrientationOffsetY: 0
    m_Level: 0
    m_CycleOffset: 0
    m_HasAdditiveReferencePose: 0
    m_LoopTime: 1
    m_LoopBlend: 0
    m_LoopBlendOrientation: 0
    m_LoopBlendPositionY: 0
    m_LoopBlendPositionXZ: 0
    m_KeepOriginalOrientation: 0
    m_KeepOriginalPositionY: 1
    m_KeepOriginalPositionXZ: 0
    m_HeightFromFeet: 0
    m_Mirror: 0
  m_EditorCurves: []
  m_EulerEditorCurves: []
  m_HasGenericRootTransform: 0
  m_HasMotionFloatCurves: 0
  m_Events: []
