%YAML 1.1
%TAG !u! tag:unity3d.com,2011:
--- !u!114 &11400000
MonoBehaviour:
  m_ObjectHideFlags: 0
  m_CorrespondingSourceObject: {fileID: 0}
  m_PrefabInstance: {fileID: 0}
  m_PrefabAsset: {fileID: 0}
  m_GameObject: {fileID: 0}
  m_Enabled: 1
  m_EditorHideFlags: 0
  m_Script: {fileID: 11500000, guid: 5854a08f85d73774c891d60edc02eb02, type: 3}
  m_Name: 5-RecipeByakhee
  m_EditorClassIdentifier: 
  m_entry:
  - m_minigameScene: DarknessBumper
    m_difficulty: 0
  - m_minigameScene: MonstersInvaders
    m_difficulty: 1
  - m_minigameScene: DecodeAudioMinigame
    m_difficulty: 2
  - m_minigameScene: RunesDrawing
    m_difficulty: 1
  - m_minigameScene: NecromancerShop
    m_difficulty: 1
  - m_minigameScene: CauldronMinigame
    m_difficulty: 1
  - m_minigameScene: PotionBrew
    m_difficulty: 2
  - m_minigameScene: OuijaBoardMinigame
    m_difficulty: 2
